0000.041 (0) Opened log file at time: Tue, 05 Apr 2016 14:11:27 +0000 on http://sf.jasoncharlesgray.com
0000.044 (0) UpdraftPlus WordPress backup plugin (https://updraftplus.com): 2.11.29.1 WP: 4.4.2 PHP: 5.4.43 (Linux box978.bluehost.com 3.12.50-39.ELK6.x86_64 #1 SMP Mon Nov 2 03:10:26 CST 2015 x86_64) MySQL: 5.5.42 Server: Apache safe_mode: 0 max_execution_time: 900 memory_limit: 256M (used: 32.7M | 33M) multisite: N mcrypt: Y LANG:  ZipArchive::addFile: Y
0000.237 (0) Free space on disk containing Updraft's temporary directory: 707056.3 Mb
0000.242 (0) Tasks: Backup files: 1 (schedule: daily) Backup DB:  (schedule: daily)
0000.243 (0) Processed schedules. Tasks now: Backup files: 1 Backup DB: 1
0000.280 (0) Requesting semaphore lock (fd) (apparently via scheduler: last_scheduled_action_called_at=1459786431, seconds_ago=79056)
0000.283 (0) Set semaphore last lock (fd) time to 2016-04-05 14:11:27
0000.284 (0) Semaphore lock (fd) complete
0000.289 (0) Backup run: resumption=0, nonce=d6c19f8762cf, begun at=1459865486 (1s ago), job type=backup
0000.291 (0) Scheduling a resumption (1) after 357 seconds (1459865844) in case this run gets aborted
0000.307 (0) Checking if we have a zip executable available
0000.308 (0) Testing: /usr/bin/zip
0000.360 (0) Output: zip warning: binziptest/test.zip not found or empty
0000.362 (0) Output: adding: binziptest/subdir1/	(in=0) (out=0) (stored 0%)
0000.363 (0) Output: adding: binziptest/subdir1/subdir2/	(in=0) (out=0) (stored 0%)
0000.364 (0) Output: adding: binziptest/subdir1/subdir2/test.html	(in=128) (out=105) (deflated 18%)
0000.365 (0) Output: total bytes=128, compressed=105 -> 18% savings
0000.374 (0) Output: adding: binziptest/subdir1/subdir2/test2.html	(in=135) (out=111) (deflated 18%)
0000.376 (0) Output: total bytes=263, compressed=216 -> 18% savings
0000.435 (0) Working binary zip found: /usr/bin/zip
0000.437 (0) Zip engine: found/will use a binary zip: /usr/bin/zip
0000.439 (0) Creation of backups of directories: beginning
0000.443 (0) Beginning creation of dump of plugins (split every: 25 Mb)
0001.943 (0) Total entities for the zip file: 513 directories, 3653 files (0 skipped as non-modified), 68.5 Mb
0001.948 (0) Zip: backup_2016-04-05-1411_Sheehan_Phinney_d6c19f8762cf-plugins.zip.tmp: 100 files added (on-disk size: 0 Kb)
0001.952 (0) Zip: backup_2016-04-05-1411_Sheehan_Phinney_d6c19f8762cf-plugins.zip.tmp: 200 files added (on-disk size: 0 Kb)
0001.955 (0) Zip: backup_2016-04-05-1411_Sheehan_Phinney_d6c19f8762cf-plugins.zip.tmp: 300 files added (on-disk size: 0 Kb)
0001.959 (0) Zip: backup_2016-04-05-1411_Sheehan_Phinney_d6c19f8762cf-plugins.zip.tmp: 400 files added (on-disk size: 0 Kb)
0001.963 (0) Zip: backup_2016-04-05-1411_Sheehan_Phinney_d6c19f8762cf-plugins.zip.tmp: 500 files added (on-disk size: 0 Kb)
0001.964 (0) Adding batch to zip file (UpdraftPlus_BinZip): over 500 files added on this batch (7.9 Mb, 3653 files batched, 501 (501) added so far); re-opening (prior size: 0 Kb)
0011.031 (0) backup_2016-04-05-1411_Sheehan_Phinney_d6c19f8762cf-plugins.zip.tmp: size is now: 4.40 Mb
0011.037 (0) Zip: backup_2016-04-05-1411_Sheehan_Phinney_d6c19f8762cf-plugins.zip.tmp: 600 files added (on-disk size: 4532.7 Kb)
0011.041 (0) Zip: backup_2016-04-05-1411_Sheehan_Phinney_d6c19f8762cf-plugins.zip.tmp: 700 files added (on-disk size: 4532.7 Kb)
0011.044 (0) Zip: backup_2016-04-05-1411_Sheehan_Phinney_d6c19f8762cf-plugins.zip.tmp: 800 files added (on-disk size: 4532.7 Kb)
0011.048 (0) Zip: backup_2016-04-05-1411_Sheehan_Phinney_d6c19f8762cf-plugins.zip.tmp: 900 files added (on-disk size: 4532.7 Kb)
0011.052 (0) Zip: backup_2016-04-05-1411_Sheehan_Phinney_d6c19f8762cf-plugins.zip.tmp: 1000 files added (on-disk size: 4532.7 Kb)
0011.053 (0) Adding batch to zip file (UpdraftPlus_BinZip): over 500 files added on this batch (14.8 Mb, 3653 files batched, 501 (1002) added so far); re-opening (prior size: 4532.7 Kb)
0019.768 (0) backup_2016-04-05-1411_Sheehan_Phinney_d6c19f8762cf-plugins.zip.tmp: size is now: 8.80 Mb
0019.774 (0) Zip: backup_2016-04-05-1411_Sheehan_Phinney_d6c19f8762cf-plugins.zip.tmp: 1100 files added (on-disk size: 8967.7 Kb)
0019.779 (0) Zip: backup_2016-04-05-1411_Sheehan_Phinney_d6c19f8762cf-plugins.zip.tmp: 1200 files added (on-disk size: 8967.7 Kb)
0019.783 (0) Zip: backup_2016-04-05-1411_Sheehan_Phinney_d6c19f8762cf-plugins.zip.tmp: 1300 files added (on-disk size: 8967.7 Kb)
0019.787 (0) Zip: backup_2016-04-05-1411_Sheehan_Phinney_d6c19f8762cf-plugins.zip.tmp: 1400 files added (on-disk size: 8967.7 Kb)
0019.790 (0) Zip: backup_2016-04-05-1411_Sheehan_Phinney_d6c19f8762cf-plugins.zip.tmp: 1500 files added (on-disk size: 8967.7 Kb)
0019.791 (0) Adding batch to zip file (UpdraftPlus_BinZip): over 500 files added on this batch (6.9 Mb, 3653 files batched, 501 (1503) added so far); re-opening (prior size: 8967.7 Kb)
0024.551 (0) backup_2016-04-05-1411_Sheehan_Phinney_d6c19f8762cf-plugins.zip.tmp: size is now: 11.10 Mb
0024.557 (0) Zip: backup_2016-04-05-1411_Sheehan_Phinney_d6c19f8762cf-plugins.zip.tmp: 1600 files added (on-disk size: 11353.8 Kb)
0024.561 (0) Zip: backup_2016-04-05-1411_Sheehan_Phinney_d6c19f8762cf-plugins.zip.tmp: 1700 files added (on-disk size: 11353.8 Kb)
0024.564 (0) Zip: backup_2016-04-05-1411_Sheehan_Phinney_d6c19f8762cf-plugins.zip.tmp: 1800 files added (on-disk size: 11353.8 Kb)
0024.568 (0) Zip: backup_2016-04-05-1411_Sheehan_Phinney_d6c19f8762cf-plugins.zip.tmp: 1900 files added (on-disk size: 11353.8 Kb)
0024.571 (0) Zip: backup_2016-04-05-1411_Sheehan_Phinney_d6c19f8762cf-plugins.zip.tmp: 2000 files added (on-disk size: 11353.8 Kb)
0024.572 (0) Adding batch to zip file (UpdraftPlus_BinZip): over 500 files added on this batch (8.8 Mb, 3653 files batched, 501 (2004) added so far); re-opening (prior size: 11353.8 Kb)
0028.025 (0) backup_2016-04-05-1411_Sheehan_Phinney_d6c19f8762cf-plugins.zip.tmp: size is now: 14.10 Mb
0028.031 (0) Zip: backup_2016-04-05-1411_Sheehan_Phinney_d6c19f8762cf-plugins.zip.tmp: 2100 files added (on-disk size: 14468.2 Kb)
0028.036 (0) Zip: backup_2016-04-05-1411_Sheehan_Phinney_d6c19f8762cf-plugins.zip.tmp: 2200 files added (on-disk size: 14468.2 Kb)
0028.040 (0) Zip: backup_2016-04-05-1411_Sheehan_Phinney_d6c19f8762cf-plugins.zip.tmp: 2300 files added (on-disk size: 14468.2 Kb)
0028.043 (0) Zip: backup_2016-04-05-1411_Sheehan_Phinney_d6c19f8762cf-plugins.zip.tmp: 2400 files added (on-disk size: 14468.2 Kb)
0028.047 (0) Zip: backup_2016-04-05-1411_Sheehan_Phinney_d6c19f8762cf-plugins.zip.tmp: 2500 files added (on-disk size: 14468.2 Kb)
0028.049 (0) Adding batch to zip file (UpdraftPlus_BinZip): over 500 files added on this batch (10.9 Mb, 3653 files batched, 501 (2505) added so far); re-opening (prior size: 14468.2 Kb)
0035.486 (0) Zip: backup_2016-04-05-1411_Sheehan_Phinney_d6c19f8762cf-plugins.zip.tmp: 2600 files added (on-disk size: 16612.4 Kb)
0035.493 (0) Zip: backup_2016-04-05-1411_Sheehan_Phinney_d6c19f8762cf-plugins.zip.tmp: 2700 files added (on-disk size: 16612.4 Kb)
0035.501 (0) Zip: backup_2016-04-05-1411_Sheehan_Phinney_d6c19f8762cf-plugins.zip.tmp: 2800 files added (on-disk size: 16612.4 Kb)
0035.509 (0) Zip: backup_2016-04-05-1411_Sheehan_Phinney_d6c19f8762cf-plugins.zip.tmp: 2900 files added (on-disk size: 16612.4 Kb)
0035.517 (0) Zip: backup_2016-04-05-1411_Sheehan_Phinney_d6c19f8762cf-plugins.zip.tmp: 3000 files added (on-disk size: 16612.4 Kb)
0035.519 (0) Adding batch to zip file (UpdraftPlus_BinZip): over 500 files added on this batch (14.1 Mb, 3653 files batched, 501 (3006) added so far); re-opening (prior size: 16612.4 Kb)
0054.256 (0) backup_2016-04-05-1411_Sheehan_Phinney_d6c19f8762cf-plugins.zip.tmp: size is now: 20.60 Mb
0054.265 (0) Zip: backup_2016-04-05-1411_Sheehan_Phinney_d6c19f8762cf-plugins.zip.tmp: 3100 files added (on-disk size: 21073.5 Kb)
0054.271 (0) Zip: backup_2016-04-05-1411_Sheehan_Phinney_d6c19f8762cf-plugins.zip.tmp: 3200 files added (on-disk size: 21073.5 Kb)
0054.279 (0) Zip: backup_2016-04-05-1411_Sheehan_Phinney_d6c19f8762cf-plugins.zip.tmp: 3300 files added (on-disk size: 21073.5 Kb)
0054.286 (0) Zip: backup_2016-04-05-1411_Sheehan_Phinney_d6c19f8762cf-plugins.zip.tmp: 3400 files added (on-disk size: 21073.5 Kb)
0054.293 (0) Zip: backup_2016-04-05-1411_Sheehan_Phinney_d6c19f8762cf-plugins.zip.tmp: 3500 files added (on-disk size: 21073.5 Kb)
0054.295 (0) Adding batch to zip file (UpdraftPlus_BinZip): over 500 files added on this batch (1.5 Mb, 3653 files batched, 501 (3507) added so far); re-opening (prior size: 21073.5 Kb)
0058.606 (0) Zip: backup_2016-04-05-1411_Sheehan_Phinney_d6c19f8762cf-plugins.zip.tmp: 3600 files added (on-disk size: 21774.9 Kb)
0062.446 (0) Created plugins zip (0) - 22914 Kb in 61.8 s (370.8 Kb/s) (SHA1 checksum: 77b2d6a4fc31063ca9ee63efb037450c36b3dff7)
0062.451 (0) Beginning creation of dump of themes (split every: 25 Mb)
0063.476 (0) Total entities for the zip file: 114 directories, 720 files (0 skipped as non-modified), 14.5 Mb
0063.484 (0) Zip: backup_2016-04-05-1411_Sheehan_Phinney_d6c19f8762cf-themes.zip.tmp: 100 files added (on-disk size: 0 Kb)
0063.491 (0) Zip: backup_2016-04-05-1411_Sheehan_Phinney_d6c19f8762cf-themes.zip.tmp: 200 files added (on-disk size: 0 Kb)
0063.496 (0) Zip: backup_2016-04-05-1411_Sheehan_Phinney_d6c19f8762cf-themes.zip.tmp: 300 files added (on-disk size: 0 Kb)
0063.501 (0) Zip: backup_2016-04-05-1411_Sheehan_Phinney_d6c19f8762cf-themes.zip.tmp: 400 files added (on-disk size: 0 Kb)
0063.507 (0) Zip: backup_2016-04-05-1411_Sheehan_Phinney_d6c19f8762cf-themes.zip.tmp: 500 files added (on-disk size: 0 Kb)
0063.508 (0) Adding batch to zip file (UpdraftPlus_BinZip): over 500 files added on this batch (10.7 Mb, 720 files batched, 501 (501) added so far); re-opening (prior size: 0 Kb)
0071.152 (0) backup_2016-04-05-1411_Sheehan_Phinney_d6c19f8762cf-themes.zip.tmp: size is now: 6.50 Mb
0071.158 (0) Zip: backup_2016-04-05-1411_Sheehan_Phinney_d6c19f8762cf-themes.zip.tmp: 600 files added (on-disk size: 6665.9 Kb)
0071.162 (0) Zip: backup_2016-04-05-1411_Sheehan_Phinney_d6c19f8762cf-themes.zip.tmp: 700 files added (on-disk size: 6665.9 Kb)
0072.118 (0) backup_2016-04-05-1411_Sheehan_Phinney_d6c19f8762cf-themes.zip.tmp: size is now: 9.30 Mb
0072.167 (0) Created themes zip (0) - 9531.6 Kb in 9.1 s (1047.9 Kb/s) (SHA1 checksum: 6eb8c08ae2b16c5f1ef94a2b667c377b71652e2d)
0072.170 (0) Exclusion option setting (uploads): 
0072.171 (0) Looking for candidates to back up in: /home2/theuglyr/public_html/sf/wp-content/uploads
0072.171 (0) finding files: 2016: adding to list (1)
0072.172 (0) Beginning creation of dump of uploads (split every: 25 Mb)
0072.363 (0) Total entities for the zip file: 3 directories, 51 files (0 skipped as non-modified), 22.1 Mb
0074.025 (0) backup_2016-04-05-1411_Sheehan_Phinney_d6c19f8762cf-uploads.zip.tmp: size is now: 22.10 Mb
0074.143 (0) Created uploads zip (0) - 22601.8 Kb in 1.8 s (12524 Kb/s) (SHA1 checksum: 3480238c4a81e0bbc1cfd21c1fe1dbeb49cea549)
0074.146 (0) Beginning backup of other directories found in the content directory (index: 0)
0074.147 (0) Exclusion option setting (others): 
0074.149 (0) Looking for candidates to back up in: /home2/theuglyr/public_html/sf/wp-content
0074.151 (0) finding files: upgrade: adding to list (1)
0074.152 (0) finding files: backup-1458522994-themes: adding to list (2)
0074.153 (0) finding files: backup-1458522994-plugins: adding to list (3)
0074.154 (0) finding files: w3tc-config: adding to list (4)
0074.154 (0) finding files: advanced-cache-backup.php: adding to list (5)
0074.155 (0) finding files: advanced-cache.php: adding to list (6)
0074.156 (0) finding files: mu-plugins: adding to list (7)
0074.157 (0) finding files: themes: skipping: this is the themes directory
0074.157 (0) finding files: uploads: skipping: this is the uploads directory
0074.158 (0) finding files: .DS_Store: adding to list (8)
0074.159 (0) finding files: install.php: adding to list (9)
0074.160 (0) finding files: plugins: skipping: this is the plugins directory
0074.160 (0) finding files: index.php: adding to list (10)
0074.161 (0) finding files: updraft: skipping: this is the updraft directory
0074.162 (0) finding files: cache: adding to list (11)
0077.380 (0) Total entities for the zip file: 672 directories, 4686 files (0 skipped as non-modified), 89.6 Mb
0077.383 (0) Adding batch to zip file (UpdraftPlus_BinZip): over 2.0 seconds have passed since the last write (0 Mb, 1 (1) files added so far); re-opening (prior size: 0 Kb)
0077.429 (0) backup_2016-04-05-1411_Sheehan_Phinney_d6c19f8762cf-others.zip.tmp: size is now: 0.20 Mb
0077.439 (0) Zip: backup_2016-04-05-1411_Sheehan_Phinney_d6c19f8762cf-others.zip.tmp: 100 files added (on-disk size: 173.1 Kb)
0077.446 (0) Zip: backup_2016-04-05-1411_Sheehan_Phinney_d6c19f8762cf-others.zip.tmp: 200 files added (on-disk size: 173.1 Kb)
0077.454 (0) Zip: backup_2016-04-05-1411_Sheehan_Phinney_d6c19f8762cf-others.zip.tmp: 300 files added (on-disk size: 173.1 Kb)
0077.460 (0) Zip: backup_2016-04-05-1411_Sheehan_Phinney_d6c19f8762cf-others.zip.tmp: 400 files added (on-disk size: 173.1 Kb)
0077.464 (0) Zip: backup_2016-04-05-1411_Sheehan_Phinney_d6c19f8762cf-others.zip.tmp: 500 files added (on-disk size: 173.1 Kb)
0077.465 (0) Adding batch to zip file (UpdraftPlus_BinZip): over 500 files added on this batch (11.3 Mb, 4686 files batched, 501 (502) added so far); re-opening (prior size: 173.1 Kb)
0085.317 (0) backup_2016-04-05-1411_Sheehan_Phinney_d6c19f8762cf-others.zip.tmp: size is now: 7.40 Mb
0085.325 (0) Zip: backup_2016-04-05-1411_Sheehan_Phinney_d6c19f8762cf-others.zip.tmp: 600 files added (on-disk size: 7559.9 Kb)
0085.330 (0) Zip: backup_2016-04-05-1411_Sheehan_Phinney_d6c19f8762cf-others.zip.tmp: 700 files added (on-disk size: 7559.9 Kb)
0085.336 (0) Zip: backup_2016-04-05-1411_Sheehan_Phinney_d6c19f8762cf-others.zip.tmp: 800 files added (on-disk size: 7559.9 Kb)
0085.343 (0) Zip: backup_2016-04-05-1411_Sheehan_Phinney_d6c19f8762cf-others.zip.tmp: 900 files added (on-disk size: 7559.9 Kb)
0085.347 (0) Zip: backup_2016-04-05-1411_Sheehan_Phinney_d6c19f8762cf-others.zip.tmp: 1000 files added (on-disk size: 7559.9 Kb)
0085.348 (0) Adding batch to zip file (UpdraftPlus_BinZip): over 500 files added on this batch (9.7 Mb, 4686 files batched, 501 (1003) added so far); re-opening (prior size: 7559.9 Kb)
0089.598 (0) backup_2016-04-05-1411_Sheehan_Phinney_d6c19f8762cf-others.zip.tmp: size is now: 13.90 Mb
0089.605 (0) Zip: backup_2016-04-05-1411_Sheehan_Phinney_d6c19f8762cf-others.zip.tmp: 1100 files added (on-disk size: 14185 Kb)
0089.609 (0) Zip: backup_2016-04-05-1411_Sheehan_Phinney_d6c19f8762cf-others.zip.tmp: 1200 files added (on-disk size: 14185 Kb)
0089.613 (0) Zip: backup_2016-04-05-1411_Sheehan_Phinney_d6c19f8762cf-others.zip.tmp: 1300 files added (on-disk size: 14185 Kb)
0089.616 (0) Zip: backup_2016-04-05-1411_Sheehan_Phinney_d6c19f8762cf-others.zip.tmp: 1400 files added (on-disk size: 14185 Kb)
0089.620 (0) Zip: backup_2016-04-05-1411_Sheehan_Phinney_d6c19f8762cf-others.zip.tmp: 1500 files added (on-disk size: 14185 Kb)
0089.621 (0) Adding batch to zip file (UpdraftPlus_BinZip): over 500 files added on this batch (9.7 Mb, 4686 files batched, 501 (1504) added so far); re-opening (prior size: 14185 Kb)
0095.421 (0) backup_2016-04-05-1411_Sheehan_Phinney_d6c19f8762cf-others.zip.tmp: size is now: 18.70 Mb
0095.547 (0) Zip: backup_2016-04-05-1411_Sheehan_Phinney_d6c19f8762cf-others.zip.tmp: 1600 files added (on-disk size: 19103.3 Kb)
0095.554 (0) Zip: backup_2016-04-05-1411_Sheehan_Phinney_d6c19f8762cf-others.zip.tmp: 1700 files added (on-disk size: 19103.3 Kb)
0095.577 (0) Zip: backup_2016-04-05-1411_Sheehan_Phinney_d6c19f8762cf-others.zip.tmp: 1800 files added (on-disk size: 19103.3 Kb)
0095.600 (0) Zip: backup_2016-04-05-1411_Sheehan_Phinney_d6c19f8762cf-others.zip.tmp: 1900 files added (on-disk size: 19103.3 Kb)
0095.609 (0) Zip: backup_2016-04-05-1411_Sheehan_Phinney_d6c19f8762cf-others.zip.tmp: 2000 files added (on-disk size: 19103.3 Kb)
0095.611 (0) Adding batch to zip file (UpdraftPlus_BinZip): over 500 files added on this batch (10.7 Mb, 4686 files batched, 501 (2005) added so far); re-opening (prior size: 19103.3 Kb)
0104.004 (0) Zip: backup_2016-04-05-1411_Sheehan_Phinney_d6c19f8762cf-others.zip.tmp: 2100 files added (on-disk size: 22425.5 Kb)
0104.009 (0) Zip: backup_2016-04-05-1411_Sheehan_Phinney_d6c19f8762cf-others.zip.tmp: 2200 files added (on-disk size: 22425.5 Kb)
0104.013 (0) Zip: backup_2016-04-05-1411_Sheehan_Phinney_d6c19f8762cf-others.zip.tmp: 2300 files added (on-disk size: 22425.5 Kb)
0104.017 (0) Zip: backup_2016-04-05-1411_Sheehan_Phinney_d6c19f8762cf-others.zip.tmp: 2400 files added (on-disk size: 22425.5 Kb)
0104.020 (0) Zip: backup_2016-04-05-1411_Sheehan_Phinney_d6c19f8762cf-others.zip.tmp: 2500 files added (on-disk size: 22425.5 Kb)
0104.021 (0) Adding batch to zip file (UpdraftPlus_BinZip): over 500 files added on this batch (9 Mb, 4686 files batched, 501 (2506) added so far); re-opening (prior size: 22425.5 Kb)
0107.319 (0) Adding batch to zip file (UpdraftPlus_BinZip): possibly approaching split limit (0.6 Mb, 21 (2527) files added so far); last ratio: 0.3238; re-opening (prior size: 25395.3 Kb)
0107.604 (0) Zip size is at/near split limit (24.9 Mb / 25 Mb) - bumping index (from: 0)
0107.724 (0) Created others zip (0) - 25531.6 Kb in 33.3 s (766.9 Kb/s) (SHA1 checksum: 279c0a3c6dadc27886f4d0b28778b5d0f2cb1651)
0107.728 (0) Zip: backup_2016-04-05-1411_Sheehan_Phinney_d6c19f8762cf-others2.zip.tmp: 2600 files added (on-disk size: 0 Kb)
0107.732 (0) Zip: backup_2016-04-05-1411_Sheehan_Phinney_d6c19f8762cf-others2.zip.tmp: 2700 files added (on-disk size: 0 Kb)
0107.736 (0) Zip: backup_2016-04-05-1411_Sheehan_Phinney_d6c19f8762cf-others2.zip.tmp: 2800 files added (on-disk size: 0 Kb)
0107.741 (0) Zip: backup_2016-04-05-1411_Sheehan_Phinney_d6c19f8762cf-others2.zip.tmp: 2900 files added (on-disk size: 0 Kb)
0107.744 (0) Zip: backup_2016-04-05-1411_Sheehan_Phinney_d6c19f8762cf-others2.zip.tmp: 3000 files added (on-disk size: 0 Kb)
0107.746 (0) Adding batch to zip file (UpdraftPlus_BinZip): over 500 files added on this batch (8.6 Mb, 4686 files batched, 501 (3028) added so far); re-opening (prior size: 0 Kb)
0110.429 (0) backup_2016-04-05-1411_Sheehan_Phinney_d6c19f8762cf-others2.zip.tmp: size is now: 3.00 Mb
0110.436 (0) Zip: backup_2016-04-05-1411_Sheehan_Phinney_d6c19f8762cf-others2.zip.tmp: 3100 files added (on-disk size: 3085.6 Kb)
0110.440 (0) Zip: backup_2016-04-05-1411_Sheehan_Phinney_d6c19f8762cf-others2.zip.tmp: 3200 files added (on-disk size: 3085.6 Kb)
0110.444 (0) Zip: backup_2016-04-05-1411_Sheehan_Phinney_d6c19f8762cf-others2.zip.tmp: 3300 files added (on-disk size: 3085.6 Kb)
0110.449 (0) Zip: backup_2016-04-05-1411_Sheehan_Phinney_d6c19f8762cf-others2.zip.tmp: 3400 files added (on-disk size: 3085.6 Kb)
0110.454 (0) Zip: backup_2016-04-05-1411_Sheehan_Phinney_d6c19f8762cf-others2.zip.tmp: 3500 files added (on-disk size: 3085.6 Kb)
0110.457 (0) Adding batch to zip file (UpdraftPlus_BinZip): over 500 files added on this batch (10.9 Mb, 4686 files batched, 501 (3529) added so far); re-opening (prior size: 3085.6 Kb)
0114.104 (0) backup_2016-04-05-1411_Sheehan_Phinney_d6c19f8762cf-others2.zip.tmp: size is now: 5.10 Mb
0114.110 (0) Zip: backup_2016-04-05-1411_Sheehan_Phinney_d6c19f8762cf-others2.zip.tmp: 3600 files added (on-disk size: 5240.8 Kb)
0114.114 (0) Zip: backup_2016-04-05-1411_Sheehan_Phinney_d6c19f8762cf-others2.zip.tmp: 3700 files added (on-disk size: 5240.8 Kb)
0114.118 (0) Zip: backup_2016-04-05-1411_Sheehan_Phinney_d6c19f8762cf-others2.zip.tmp: 3800 files added (on-disk size: 5240.8 Kb)
0114.122 (0) Zip: backup_2016-04-05-1411_Sheehan_Phinney_d6c19f8762cf-others2.zip.tmp: 3900 files added (on-disk size: 5240.8 Kb)
0114.126 (0) Zip: backup_2016-04-05-1411_Sheehan_Phinney_d6c19f8762cf-others2.zip.tmp: 4000 files added (on-disk size: 5240.8 Kb)
0114.127 (0) Adding batch to zip file (UpdraftPlus_BinZip): over 500 files added on this batch (14.1 Mb, 4686 files batched, 501 (4030) added so far); re-opening (prior size: 5240.8 Kb)
0118.703 (0) backup_2016-04-05-1411_Sheehan_Phinney_d6c19f8762cf-others2.zip.tmp: size is now: 9.50 Mb
0118.713 (0) Zip: backup_2016-04-05-1411_Sheehan_Phinney_d6c19f8762cf-others2.zip.tmp: 4100 files added (on-disk size: 9719.3 Kb)
0118.718 (0) Zip: backup_2016-04-05-1411_Sheehan_Phinney_d6c19f8762cf-others2.zip.tmp: 4200 files added (on-disk size: 9719.3 Kb)
0118.722 (0) Zip: backup_2016-04-05-1411_Sheehan_Phinney_d6c19f8762cf-others2.zip.tmp: 4300 files added (on-disk size: 9719.3 Kb)
0118.726 (0) Zip: backup_2016-04-05-1411_Sheehan_Phinney_d6c19f8762cf-others2.zip.tmp: 4400 files added (on-disk size: 9719.3 Kb)
0118.730 (0) Zip: backup_2016-04-05-1411_Sheehan_Phinney_d6c19f8762cf-others2.zip.tmp: 4500 files added (on-disk size: 9719.3 Kb)
0118.732 (0) Adding batch to zip file (UpdraftPlus_BinZip): over 500 files added on this batch (1.5 Mb, 4686 files batched, 501 (4531) added so far); re-opening (prior size: 9719.3 Kb)
0122.661 (0) Zip: backup_2016-04-05-1411_Sheehan_Phinney_d6c19f8762cf-others2.zip.tmp: 4600 files added (on-disk size: 10438.3 Kb)
0124.422 (0) Created others zip (1) - 11596.6 Kb in 16.7 s (694.5 Kb/s) (SHA1 checksum: 48aa9d15865e1a29fa099128a25081001a3fc10b)
0124.428 (0) Saving backup status to database (elements: 9)
0124.431 (0) Beginning creation of database dump (WordPress DB)
0124.433 (0) Testing: /usr/bin/mysqldump
0124.616 (0) Working binary mysqldump found: /usr/bin/mysqldump
0124.669 (0) Table wp_anyg_options: Total expected rows (approximate): 144
0124.713 (0) Table wp_anyg_options: Total rows added: 323 in 0.04 seconds
0124.717 (0) Table wp_anyg_options: finishing file (backup_2016-04-05-1411_Sheehan_Phinney_d6c19f8762cf-db-table-wp_anyg_options.table.gz - 130.7 Kb)
0124.721 (0) Table wp_anyg_users: Total expected rows (approximate): 1
0124.724 (0) Table wp_anyg_users: Total rows added: 1 in 0.00 seconds
0124.725 (0) Table wp_anyg_users: finishing file (backup_2016-04-05-1411_Sheehan_Phinney_d6c19f8762cf-db-table-wp_anyg_users.table.gz - 0.5 Kb)
0124.729 (0) Table wp_anyg_usermeta: Total expected rows (approximate): 38
0124.733 (0) Table wp_anyg_usermeta: Total rows added: 38 in 0.00 seconds
0124.734 (0) Table wp_anyg_usermeta: finishing file (backup_2016-04-05-1411_Sheehan_Phinney_d6c19f8762cf-db-table-wp_anyg_usermeta.table.gz - 1.6 Kb)
0124.739 (0) Table wp_anyg_commentmeta: Total expected rows (approximate): 0
0124.742 (0) Table wp_anyg_commentmeta: Total rows added: 0 in 0.00 seconds
0124.743 (0) Table wp_anyg_commentmeta: finishing file (backup_2016-04-05-1411_Sheehan_Phinney_d6c19f8762cf-db-table-wp_anyg_commentmeta.table.gz - 0.4 Kb)
0124.753 (0) Table wp_anyg_comments: Total expected rows (approximate): 1
0124.756 (0) Table wp_anyg_comments: Total rows added: 1 in 0.00 seconds
0124.757 (0) Table wp_anyg_comments: finishing file (backup_2016-04-05-1411_Sheehan_Phinney_d6c19f8762cf-db-table-wp_anyg_comments.table.gz - 0.7 Kb)
0124.765 (0) Table wp_anyg_links: Total expected rows (approximate): 0
0124.768 (0) Table wp_anyg_links: Total rows added: 0 in 0.00 seconds
0124.769 (0) Table wp_anyg_links: finishing file (backup_2016-04-05-1411_Sheehan_Phinney_d6c19f8762cf-db-table-wp_anyg_links.table.gz - 0.4 Kb)
0124.775 (0) Table wp_anyg_postmeta: Total expected rows (approximate): 3957
0124.911 (0) Table wp_anyg_postmeta: Total rows added: 3880 in 0.13 seconds
0124.913 (0) Table wp_anyg_postmeta: finishing file (backup_2016-04-05-1411_Sheehan_Phinney_d6c19f8762cf-db-table-wp_anyg_postmeta.table.gz - 38.5 Kb)
0124.917 (0) Table wp_anyg_posts: Total expected rows (approximate): 193
0124.952 (0) Table wp_anyg_posts: Total rows added: 169 in 0.03 seconds
0124.953 (0) Table wp_anyg_posts: finishing file (backup_2016-04-05-1411_Sheehan_Phinney_d6c19f8762cf-db-table-wp_anyg_posts.table.gz - 8.8 Kb)
0124.958 (0) Table wp_anyg_term_relationships: Total expected rows (approximate): 14
0124.962 (0) Table wp_anyg_term_relationships: Total rows added: 14 in 0.00 seconds
0124.963 (0) Table wp_anyg_term_relationships: finishing file (backup_2016-04-05-1411_Sheehan_Phinney_d6c19f8762cf-db-table-wp_anyg_term_relationships.table.gz - 0.4 Kb)
0124.969 (0) Table wp_anyg_term_taxonomy: Total expected rows (approximate): 6
0124.972 (0) Table wp_anyg_term_taxonomy: Total rows added: 6 in 0.00 seconds
0124.973 (0) Table wp_anyg_term_taxonomy: finishing file (backup_2016-04-05-1411_Sheehan_Phinney_d6c19f8762cf-db-table-wp_anyg_term_taxonomy.table.gz - 0.5 Kb)
0124.981 (0) Table wp_anyg_termmeta: Total expected rows (approximate): 0
0124.983 (0) Table wp_anyg_termmeta: Total rows added: 0 in 0.00 seconds
0124.984 (0) Table wp_anyg_termmeta: finishing file (backup_2016-04-05-1411_Sheehan_Phinney_d6c19f8762cf-db-table-wp_anyg_termmeta.table.gz - 0.4 Kb)
0124.988 (0) Table wp_anyg_terms: Total expected rows (approximate): 6
0124.991 (0) Table wp_anyg_terms: Total rows added: 6 in 0.00 seconds
0124.992 (0) Table wp_anyg_terms: finishing file (backup_2016-04-05-1411_Sheehan_Phinney_d6c19f8762cf-db-table-wp_anyg_terms.table.gz - 0.5 Kb)
0124.998 (0) Table wp_anyg_frm_fields: Total expected rows (approximate): 7
0125.002 (0) Table wp_anyg_frm_fields: Total rows added: 7 in 0.00 seconds
0125.004 (0) Table wp_anyg_frm_fields: finishing file (backup_2016-04-05-1411_Sheehan_Phinney_d6c19f8762cf-db-table-wp_anyg_frm_fields.table.gz - 0.8 Kb)
0125.010 (0) Table wp_anyg_frm_forms: Total expected rows (approximate): 1
0125.015 (0) Table wp_anyg_frm_forms: Total rows added: 1 in 0.00 seconds
0125.016 (0) Table wp_anyg_frm_forms: finishing file (backup_2016-04-05-1411_Sheehan_Phinney_d6c19f8762cf-db-table-wp_anyg_frm_forms.table.gz - 1 Kb)
0125.021 (0) Table wp_anyg_frm_item_metas: Total expected rows (approximate): 0
0125.023 (0) Table wp_anyg_frm_item_metas: Total rows added: 0 in 0.00 seconds
0125.024 (0) Table wp_anyg_frm_item_metas: finishing file (backup_2016-04-05-1411_Sheehan_Phinney_d6c19f8762cf-db-table-wp_anyg_frm_item_metas.table.gz - 0.3 Kb)
0125.030 (0) Table wp_anyg_frm_items: Total expected rows (approximate): 0
0125.032 (0) Table wp_anyg_frm_items: Total rows added: 0 in 0.00 seconds
0125.034 (0) Table wp_anyg_frm_items: finishing file (backup_2016-04-05-1411_Sheehan_Phinney_d6c19f8762cf-db-table-wp_anyg_frm_items.table.gz - 0.4 Kb)
0125.038 (0) Table wp_anyg_rg_form: Total expected rows (approximate): 0
0125.040 (0) Table wp_anyg_rg_form: Total rows added: 0 in 0.00 seconds
0125.041 (0) Table wp_anyg_rg_form: finishing file (backup_2016-04-05-1411_Sheehan_Phinney_d6c19f8762cf-db-table-wp_anyg_rg_form.table.gz - 0.4 Kb)
0125.048 (0) Table wp_anyg_rg_form_meta: Total expected rows (approximate): 0
0125.051 (0) Table wp_anyg_rg_form_meta: Total rows added: 0 in 0.00 seconds
0125.052 (0) Table wp_anyg_rg_form_meta: finishing file (backup_2016-04-05-1411_Sheehan_Phinney_d6c19f8762cf-db-table-wp_anyg_rg_form_meta.table.gz - 0.3 Kb)
0125.059 (0) Table wp_anyg_rg_form_view: Total expected rows (approximate): 0
0125.061 (0) Table wp_anyg_rg_form_view: Total rows added: 0 in 0.00 seconds
0125.062 (0) Table wp_anyg_rg_form_view: finishing file (backup_2016-04-05-1411_Sheehan_Phinney_d6c19f8762cf-db-table-wp_anyg_rg_form_view.table.gz - 0.4 Kb)
0125.070 (0) Table wp_anyg_rg_lead: Total expected rows (approximate): 0
0125.073 (0) Table wp_anyg_rg_lead: Total rows added: 0 in 0.00 seconds
0125.074 (0) Table wp_anyg_rg_lead: finishing file (backup_2016-04-05-1411_Sheehan_Phinney_d6c19f8762cf-db-table-wp_anyg_rg_lead.table.gz - 0.5 Kb)
0125.103 (0) Table wp_anyg_rg_lead_detail: Total expected rows (approximate): 0
0125.113 (0) Table wp_anyg_rg_lead_detail: Total rows added: 0 in 0.00 seconds
0125.115 (0) Table wp_anyg_rg_lead_detail: finishing file (backup_2016-04-05-1411_Sheehan_Phinney_d6c19f8762cf-db-table-wp_anyg_rg_lead_detail.table.gz - 0.4 Kb)
0125.120 (0) Table wp_anyg_rg_lead_detail_long: Total expected rows (approximate): 0
0125.123 (0) Table wp_anyg_rg_lead_detail_long: Total rows added: 0 in 0.00 seconds
0125.124 (0) Table wp_anyg_rg_lead_detail_long: finishing file (backup_2016-04-05-1411_Sheehan_Phinney_d6c19f8762cf-db-table-wp_anyg_rg_lead_detail_long.table.gz - 0.3 Kb)
0125.152 (0) Table wp_anyg_rg_lead_meta: Total expected rows (approximate): 0
0125.156 (0) Table wp_anyg_rg_lead_meta: Total rows added: 0 in 0.00 seconds
0125.157 (0) Table wp_anyg_rg_lead_meta: finishing file (backup_2016-04-05-1411_Sheehan_Phinney_d6c19f8762cf-db-table-wp_anyg_rg_lead_meta.table.gz - 0.4 Kb)
0125.243 (0) Table wp_anyg_rg_lead_notes: Total expected rows (approximate): 0
0125.246 (0) Table wp_anyg_rg_lead_notes: Total rows added: 0 in 0.00 seconds
0125.247 (0) Table wp_anyg_rg_lead_notes: finishing file (backup_2016-04-05-1411_Sheehan_Phinney_d6c19f8762cf-db-table-wp_anyg_rg_lead_notes.table.gz - 0.4 Kb)
0125.253 (0) backup_2016-04-05-1411_Sheehan_Phinney_d6c19f8762cf-db-table-wp_anyg_options.table.gz (1/24): adding to final database dump
0125.297 (0) backup_2016-04-05-1411_Sheehan_Phinney_d6c19f8762cf-db-table-wp_anyg_users.table.gz (2/24): adding to final database dump
0125.299 (0) backup_2016-04-05-1411_Sheehan_Phinney_d6c19f8762cf-db-table-wp_anyg_usermeta.table.gz (3/24): adding to final database dump
0125.301 (0) backup_2016-04-05-1411_Sheehan_Phinney_d6c19f8762cf-db-table-wp_anyg_commentmeta.table.gz (4/24): adding to final database dump
0125.302 (0) backup_2016-04-05-1411_Sheehan_Phinney_d6c19f8762cf-db-table-wp_anyg_comments.table.gz (5/24): adding to final database dump
0125.304 (0) backup_2016-04-05-1411_Sheehan_Phinney_d6c19f8762cf-db-table-wp_anyg_links.table.gz (6/24): adding to final database dump
0125.305 (0) backup_2016-04-05-1411_Sheehan_Phinney_d6c19f8762cf-db-table-wp_anyg_postmeta.table.gz (7/24): adding to final database dump
0125.344 (0) backup_2016-04-05-1411_Sheehan_Phinney_d6c19f8762cf-db-table-wp_anyg_posts.table.gz (8/24): adding to final database dump
0125.349 (0) backup_2016-04-05-1411_Sheehan_Phinney_d6c19f8762cf-db-table-wp_anyg_term_relationships.table.gz (9/24): adding to final database dump
0125.350 (0) backup_2016-04-05-1411_Sheehan_Phinney_d6c19f8762cf-db-table-wp_anyg_term_taxonomy.table.gz (10/24): adding to final database dump
0125.351 (0) backup_2016-04-05-1411_Sheehan_Phinney_d6c19f8762cf-db-table-wp_anyg_termmeta.table.gz (11/24): adding to final database dump
0125.352 (0) backup_2016-04-05-1411_Sheehan_Phinney_d6c19f8762cf-db-table-wp_anyg_terms.table.gz (12/24): adding to final database dump
0125.353 (0) backup_2016-04-05-1411_Sheehan_Phinney_d6c19f8762cf-db-table-wp_anyg_frm_fields.table.gz (13/24): adding to final database dump
0125.354 (0) backup_2016-04-05-1411_Sheehan_Phinney_d6c19f8762cf-db-table-wp_anyg_frm_forms.table.gz (14/24): adding to final database dump
0125.355 (0) backup_2016-04-05-1411_Sheehan_Phinney_d6c19f8762cf-db-table-wp_anyg_frm_item_metas.table.gz (15/24): adding to final database dump
0125.356 (0) backup_2016-04-05-1411_Sheehan_Phinney_d6c19f8762cf-db-table-wp_anyg_frm_items.table.gz (16/24): adding to final database dump
0125.358 (0) backup_2016-04-05-1411_Sheehan_Phinney_d6c19f8762cf-db-table-wp_anyg_rg_form.table.gz (17/24): adding to final database dump
0125.359 (0) backup_2016-04-05-1411_Sheehan_Phinney_d6c19f8762cf-db-table-wp_anyg_rg_form_meta.table.gz (18/24): adding to final database dump
0125.360 (0) backup_2016-04-05-1411_Sheehan_Phinney_d6c19f8762cf-db-table-wp_anyg_rg_form_view.table.gz (19/24): adding to final database dump
0125.362 (0) backup_2016-04-05-1411_Sheehan_Phinney_d6c19f8762cf-db-table-wp_anyg_rg_lead.table.gz (20/24): adding to final database dump
0125.363 (0) backup_2016-04-05-1411_Sheehan_Phinney_d6c19f8762cf-db-table-wp_anyg_rg_lead_detail.table.gz (21/24): adding to final database dump
0125.364 (0) backup_2016-04-05-1411_Sheehan_Phinney_d6c19f8762cf-db-table-wp_anyg_rg_lead_detail_long.table.gz (22/24): adding to final database dump
0125.365 (0) backup_2016-04-05-1411_Sheehan_Phinney_d6c19f8762cf-db-table-wp_anyg_rg_lead_meta.table.gz (23/24): adding to final database dump
0125.366 (0) backup_2016-04-05-1411_Sheehan_Phinney_d6c19f8762cf-db-table-wp_anyg_rg_lead_notes.table.gz (24/24): adding to final database dump
0125.367 (0) backup_2016-04-05-1411_Sheehan_Phinney_d6c19f8762cf-db.gz: finished writing out complete database file (160 Kb)
0125.372 (0) Total database tables backed up: 24 (backup_2016-04-05-1411_Sheehan_Phinney_d6c19f8762cf-db.gz, size: 187579, checksum (SHA1): f37bb09cc125889764fd5b239f4ed852e1450489)
0125.379 (0) backup_2016-04-05-1411_Sheehan_Phinney_d6c19f8762cf-plugins.zip: plugins: This file has not yet been successfully uploaded: will queue
0125.380 (0) backup_2016-04-05-1411_Sheehan_Phinney_d6c19f8762cf-themes.zip: themes: This file has not yet been successfully uploaded: will queue
0125.381 (0) backup_2016-04-05-1411_Sheehan_Phinney_d6c19f8762cf-uploads.zip: uploads: This file has not yet been successfully uploaded: will queue
0125.382 (0) backup_2016-04-05-1411_Sheehan_Phinney_d6c19f8762cf-others.zip: others: This file has not yet been successfully uploaded: will queue
0125.382 (0) backup_2016-04-05-1411_Sheehan_Phinney_d6c19f8762cf-others2.zip: others: This file has not yet been successfully uploaded: will queue
0125.383 (0) backup_2016-04-05-1411_Sheehan_Phinney_d6c19f8762cf-db.gz: db: This file has not yet been successfully uploaded: will queue
0125.384 (0) Saving backup history. Total backup size: 90.2 Mb
0125.387 (0) Requesting upload of the files that have not yet been successfully uploaded (6)
0125.390 (0) Cloud backup selection (1/1):  (last)
0125.390 (0) No remote despatch: user chose no remote backup service
0125.392 (0) Recording as successfully uploaded: backup_2016-04-05-1411_Sheehan_Phinney_d6c19f8762cf-plugins.zip (87fe5ab2f4a55a116fc19cd0fa611b81)
0125.397 (0) Recording as successfully uploaded: backup_2016-04-05-1411_Sheehan_Phinney_d6c19f8762cf-themes.zip (4a704686c34de04648c2c13fb75ea360)
0125.401 (0) Recording as successfully uploaded: backup_2016-04-05-1411_Sheehan_Phinney_d6c19f8762cf-uploads.zip (846a3b987499db5f7e2b6d4250c04661)
0125.405 (0) Recording as successfully uploaded: backup_2016-04-05-1411_Sheehan_Phinney_d6c19f8762cf-others.zip (84c5cf96dc5e5085e748a75f44ab96e1)
0125.409 (0) Recording as successfully uploaded: backup_2016-04-05-1411_Sheehan_Phinney_d6c19f8762cf-others2.zip (ac7c55da09f9aae4d0d2f818786ac04a)
0125.413 (0) Recording as successfully uploaded: backup_2016-04-05-1411_Sheehan_Phinney_d6c19f8762cf-db.gz (b97c833309d1639f7be52f0088f633af)
0125.419 (0) Retain: beginning examination of existing backup sets; user setting: retain_files=3, retain_db=3
0125.420 (0) Number of backup sets in history: 4; groups (db): 1
0125.421 (0) Examining (for databases) backup set with group_id=0, nonce=d6c19f8762cf, datestamp=1459865486 (Apr 05 2016 14:11:26)
0125.422 (0) This backup set is the backup set just made, so will not be deleted.
0125.423 (0) Examining (for databases) backup set with group_id=0, nonce=4255c592d516, datestamp=1459786430 (Apr 04 2016 16:13:50)
0125.423 (0) This backup set remains non-empty (f=1/d=1); will retain in history
0125.424 (0) Examining (for databases) backup set with group_id=0, nonce=75ec4e5c8d95, datestamp=1459527146 (Apr 01 2016 16:12:26)
0125.425 (0) This backup set remains non-empty (f=1/d=1); will retain in history
0125.426 (0) Examining (for databases) backup set with group_id=0, nonce=97818db904d5, datestamp=1459440698 (Mar 31 2016 16:11:38)
0125.427 (0) 1459440698: db: this set includes a database (backup_2016-03-31-1611_Sheehan_Phinney_97818db904d5-db.gz); db count is now 3
0125.427 (0) 1459440698: db: over retain limit (3); will delete this database
0125.428 (0) Delete file: backup_2016-03-31-1611_Sheehan_Phinney_97818db904d5-db.gz, service=none
0125.429 (0) Deleting local copy (backup_2016-03-31-1611_Sheehan_Phinney_97818db904d5-db.gz)
0125.449 (0) This backup set remains non-empty (f=1/d=0); will retain in history
0125.450 (0) Number of backup sets in history: 4; groups (files): 1
0125.451 (0) Examining (for files) backup set with nonce=d6c19f8762cf, datestamp=1459865486 (Apr 05 2016 14:11:26)
0125.452 (0) This backup set is the backup set just made, so will not be deleted, despite being over the retain limit.
0125.453 (0) This backup set is the backup set just made, so will not be deleted, despite being over the retain limit.
0125.453 (0) This backup set is the backup set just made, so will not be deleted, despite being over the retain limit.
0125.453 (0) This backup set is the backup set just made, so will not be deleted, despite being over the retain limit.
0125.453 (0) This backup set remains non-empty (f=1/d=1); will retain in history
0125.454 (0) Examining (for files) backup set with nonce=4255c592d516, datestamp=1459786430 (Apr 04 2016 16:13:50)
0125.455 (0) This backup set remains non-empty (f=1/d=1); will retain in history
0125.456 (0) Examining (for files) backup set with nonce=75ec4e5c8d95, datestamp=1459527146 (Apr 01 2016 16:12:26)
0125.457 (0) This backup set remains non-empty (f=1/d=1); will retain in history
0125.458 (0) Examining (for files) backup set with nonce=97818db904d5, datestamp=1459440698 (Mar 31 2016 16:11:38)
0125.458 (0) plugins: over retain limit (3); will delete this file entity
0125.459 (0) themes: over retain limit (3); will delete this file entity
0125.460 (0) uploads: over retain limit (3); will delete this file entity
0125.461 (0) others: over retain limit (3); will delete this file entity
0125.462 (0) Delete file: backup_2016-03-31-1611_Sheehan_Phinney_97818db904d5-plugins.zip, service=none
0125.462 (0) Deleting local copy (backup_2016-03-31-1611_Sheehan_Phinney_97818db904d5-plugins.zip)
0125.481 (0) Delete file: backup_2016-03-31-1611_Sheehan_Phinney_97818db904d5-themes.zip, service=none
0125.482 (0) Deleting local copy (backup_2016-03-31-1611_Sheehan_Phinney_97818db904d5-themes.zip)
0125.483 (0) Delete file: backup_2016-03-31-1611_Sheehan_Phinney_97818db904d5-uploads.zip, service=none
0125.484 (0) Deleting local copy (backup_2016-03-31-1611_Sheehan_Phinney_97818db904d5-uploads.zip)
0125.515 (0) Delete file: backup_2016-03-31-1611_Sheehan_Phinney_97818db904d5-others.zip, service=none
0125.516 (0) Deleting local copy (backup_2016-03-31-1611_Sheehan_Phinney_97818db904d5-others.zip)
0125.601 (0) Delete file: backup_2016-03-31-1611_Sheehan_Phinney_97818db904d5-others2.zip, service=none
0125.606 (0) Deleting local copy (backup_2016-03-31-1611_Sheehan_Phinney_97818db904d5-others2.zip)
0125.632 (0) This backup set is now empty; will remove from history
0125.633 (0) Deleting log file (log.97818db904d5.txt)
0125.657 (0) Retain: saving new backup history (sets now: 3) and finishing retain operation
0125.672 (0) Resume backup (d6c19f8762cf, 0): finish run
0125.674 (0) Decremented the semaphore (fd) by 1
0125.676 (0) Semaphore (fd) unlocked
0125.676 (0) There were no errors in the uploads, so the 'resume' event (1) is being unscheduled
0125.680 (0) No email will/can be sent - the user has not configured an email address.
0125.681 (0) The backup apparently succeeded and is now complete
