<?xml version="1.0" standalone="no"?>
<!DOCTYPE svg PUBLIC "-//W3C//DTD SVG 1.1//EN" "http://www.w3.org/Graphics/SVG/1.1/DTD/svg11.dtd" >
<svg xmlns="http://www.w3.org/2000/svg">
<metadata></metadata>
<defs>
<font id="lucida_brightregular" horiz-adv-x="1246" >
<font-face units-per-em="2048" ascent="1638" descent="-410" />
<missing-glyph horiz-adv-x="623" />
<glyph horiz-adv-x="0" />
<glyph horiz-adv-x="682" />
<glyph unicode=" "  horiz-adv-x="623" />
<glyph unicode="&#x09;" horiz-adv-x="623" />
<glyph unicode="&#xa0;" horiz-adv-x="623" />
<glyph unicode="!" horiz-adv-x="543" d="M173 0v197h197v-197h-197zM173 1184v296h197v-296l-67 -789h-62z" />
<glyph unicode="&#x22;" horiz-adv-x="790" d="M123 1579h197l-67 -493h-62zM468 1579h198l-68 -493h-62z" />
<glyph unicode="#" d="M-6 456l18 99h318l93 370h-336l19 99h342l114 456h102l-114 -456h289l114 456h102l-114 -456h312l-19 -99h-318l-92 -370h336l-19 -99h-342l-114 -456h-103l115 456h-289l-114 -456h-102l114 456h-312zM433 555h288l93 370h-289z" />
<glyph unicode="$" d="M191 86v247h111l1 -18q2 -46 3 -68q0 -81 72.5 -131.5t189.5 -50.5l38 1v607q-205 119 -285.5 219t-80.5 238q0 297 366 355v119h62v-119q173 -8 356 -77v-230h-111l-1 19q-4 49 -4 66q0 70 -60.5 112t-161.5 42h-18v-580l150 -96q129 -81 176.5 -150.5t47.5 -177.5 q0 -160 -100 -271t-274 -142v-123h-62v123q-210 0 -415 86zM412 1164q0 -157 194 -285v531q-88 -13 -141 -80t-53 -166zM668 78q202 57 202 282q0 175 -202 277v-559z" />
<glyph unicode="%" horiz-adv-x="1382" d="M22 1110q0 164 88 267t227 103q138 0 226 -103t88 -267q0 -163 -87.5 -266.5t-226.5 -103.5t-227 103.5t-88 266.5zM34 -37l1190 1554h124l-1189 -1554h-125zM170 1111q0 -154 42 -231.5t125 -77.5t124.5 77.5t41.5 231.5t-41.5 231t-124.5 77t-125 -77t-42 -231z M731 370q0 163 88 266.5t227 103.5t227 -103.5t88 -266.5t-88 -266.5t-227 -103.5t-227 103.5t-88 266.5zM879 371q0 -155 42 -232.5t125 -77.5q84 0 125.5 77.5t41.5 232.5q0 154 -41.5 231t-125.5 77q-83 0 -125 -77t-42 -231z" />
<glyph unicode="&#x26;" horiz-adv-x="1413" d="M37 439q0 329 374 449q-115 177 -115 306q0 139 99 231.5t249 92.5q158 0 253.5 -81.5t95.5 -215.5q0 -248 -334 -368q26 -42 38 -63q125 -205 344 -504q89 132 89 316q0 79 -10 98t-53 19q-10 0 -88 5l-19 1v61h469v-61l-21 -1q-117 -6 -127.5 -13.5t-10.5 -82.5 q0 -158 -184 -392q20 -21 51.5 -54t39.5 -41q53 -59 91 -67q7 -1 135 -11l14 -1v-62h-377l-94 103q-217 -140 -411 -140q-209 0 -353.5 138t-144.5 338zM234 494q0 -179 114.5 -299t285.5 -120q140 0 268 80q-269 353 -462 679q-206 -120 -206 -340zM493 1253 q0 -110 98 -283q12 -22 37 -67q181 124 181 349q0 204 -155 204q-161 0 -161 -203z" />
<glyph unicode="'" horiz-adv-x="493" d="M123 1579h247l-93 -543h-61z" />
<glyph unicode="(" horiz-adv-x="648" d="M99 645q0 291 127.5 548.5t335.5 385.5v-62q-153 -172 -209.5 -358.5t-56.5 -517.5q0 -329 56.5 -515.5t209.5 -359.5v-62q-214 132 -338.5 386t-124.5 555z" />
<glyph unicode=")" horiz-adv-x="648" d="M86 -234q153 174 209 360t56 515q0 331 -56 517t-209 359v62q213 -132 338 -386t125 -554q0 -291 -127.5 -549t-335.5 -386v62z" />
<glyph unicode="*" horiz-adv-x="962" d="M89 1142l46 140l282 -130q-24 -28 -24 -55q0 -5 1 -16zM193 821l211 228q22 -36 60 -44l-151 -271zM407 1480h149l-38 -308q-21 9 -37 9t-36 -9zM499 1005q40 9 59 44l212 -228l-120 -87zM546 1152l282 130l46 -140l-305 -61q1 10 1 16q0 29 -24 55z" />
<glyph unicode="+" d="M80 537v111h487v487h111v-487h488v-111h-488v-488h-111v488h-487z" />
<glyph unicode="," horiz-adv-x="543" d="M148 0v247h247v-215q0 -127 -14 -174.5t-65 -100.5q-70 -72 -168 -78v62q99 9 99 194v65h-99z" />
<glyph unicode="-" horiz-adv-x="666" d="M99 537v148h469v-148h-469z" />
<glyph unicode="." horiz-adv-x="543" d="M148 0v247h247v-247h-247z" />
<glyph unicode="/" horiz-adv-x="1049" d="M4 -296l921 1875h120l-918 -1875h-123z" />
<glyph unicode="0" d="M105 735q0 358 140.5 570t377.5 212t377.5 -212t140.5 -569q0 -352 -141 -562.5t-377 -210.5q-235 0 -376.5 210.5t-141.5 561.5zM315 740q0 -378 76 -538q84 -177 232 -177t232 177q77 160 77 538q0 380 -77 538q-85 178 -236 178q-142 0 -228 -178q-76 -157 -76 -538z " />
<glyph unicode="1" d="M241 0v62l117 1q66 0 129 16q38 10 38 180v942q0 95 -11 133.5t-37 38.5q-31 0 -137 -20l-99 -18v62l481 96v-1234q0 -170 38 -180q63 -16 129 -16l117 -1v-62h-765z" />
<glyph unicode="2" d="M160 0v99q85 248 267 418l106 98q184 172 245 273t61 233q0 151 -74.5 242t-197.5 91q-136 0 -229 -73q-36 -28 -45 -199l-1 -24h-99v269q216 91 397 91q201 0 329.5 -112.5t128.5 -286.5q0 -233 -290 -433l-120 -83q-289 -198 -316 -430h720v-173h-882z" />
<glyph unicode="3" d="M185 10v261h99l1 -22l3 -80q4 -48 35 -72q93 -73 226 -73q130 0 210 103.5t80 272.5t-105 264t-291 95h-122v61h66q220 0 319.5 79.5t99.5 255.5q0 151 -66.5 226t-199.5 75q-114 0 -201 -49q-24 -14 -29 -32t-14 -126l-1 -15h-99v226q161 58 364 58q205 0 323.5 -91.5 t118.5 -249.5q0 -132 -77.5 -226t-233.5 -151q191 -49 273 -140t82 -254q0 -204 -133 -323.5t-361 -119.5q-105 0 -197 12t-170 35z" />
<glyph unicode="4" d="M62 419v99l740 987h111v-937h198v-149h-198v-160q0 -136 22 -161.5t145 -34.5l18 -1v-62h-567v62l18 1q149 9 170.5 30.5t21.5 165.5v160h-679zM173 568h568v754z" />
<glyph unicode="5" d="M234 -3v250h99l1 -24q0 -117 40 -157.5t155 -40.5q139 0 219.5 107.5t80.5 292.5q0 220 -127 307.5t-443 87.5v660h746v-172h-685v-414h92q312 0 468 -118.5t156 -356.5q0 -214 -144 -335t-398 -121q-125 0 -260 34z" />
<glyph unicode="6" d="M123 716q0 383 156 592.5t441 209.5q185 0 325 -66v-237h-98l-2 21q-6 90 -11.5 111.5t-25.5 37.5q-89 71 -207 71q-175 0 -271.5 -183t-96.5 -516q70 97 159 145t197 48q194 0 317 -129.5t123 -334.5q0 -222 -139.5 -372.5t-344.5 -150.5q-250 0 -386 196t-136 557z M339 552q0 -234 92 -380t239 -146q123 0 192 114.5t69 318.5q0 203 -70.5 312.5t-200.5 109.5q-145 0 -233 -90t-88 -239z" />
<glyph unicode="7" d="M207 1295v185h950v-129q-324 -434 -474.5 -750.5t-167.5 -600.5h-234q28 156 83 285q70 163 147.5 282t379.5 528l149 200h-833z" />
<glyph unicode="8" d="M126 360q0 298 302 437q-228 157 -228 344q0 168 122 272.5t318 104.5q187 0 299 -88.5t112 -236.5q0 -227 -292 -377q354 -150 354 -433q0 -185 -141 -302.5t-362 -117.5q-216 0 -350 109.5t-134 287.5zM323 385q0 -166 80.5 -263t217.5 -97q127 0 211 86t84 216 q0 108 -64 181.5t-240 169.5l-139 76q-150 -138 -150 -369zM372 1206q0 -103 66 -173.5t267 -182.5q174 128 174 339q0 120 -70.5 193.5t-187.5 73.5q-104 0 -176.5 -72.5t-72.5 -177.5z" />
<glyph unicode="9" d="M117 994q0 222 139 373t345 151q250 0 386 -196.5t136 -557.5q0 -382 -156 -591.5t-441 -209.5q-185 0 -326 66v236h99l1 -21q6 -90 11.5 -111.5t26.5 -37.5q89 -70 206 -70q175 0 271.5 183t96.5 515q-69 -96 -157.5 -144.5t-197.5 -48.5q-194 0 -317 130t-123 334z M314 1021q0 -203 70.5 -312t201.5 -109q145 0 233 90t88 239q0 233 -92 379t-239 146q-124 0 -193 -114t-69 -319z" />
<glyph unicode=":" horiz-adv-x="543" d="M148 0v247h247v-247h-247zM148 839v247h247v-247h-247z" />
<glyph unicode=";" horiz-adv-x="543" d="M148 0v247h247v-215q0 -127 -14 -174.5t-65 -100.5q-70 -72 -168 -78v62q99 9 99 194v65h-99zM148 839v247h247v-247h-247z" />
<glyph unicode="&#x3c;" d="M80 592l1086 543v-119l-845 -424l845 -423v-120z" />
<glyph unicode="=" d="M80 364v111h1086v-111h-1086zM80 709v111h1086v-111h-1086z" />
<glyph unicode="&#x3e;" d="M80 49v119l845 424l-845 424v119l1086 -543z" />
<glyph unicode="?" horiz-adv-x="984" d="M89 1177v274q188 66 363 66q198 0 317.5 -89.5t119.5 -237.5q0 -160 -197 -312q-56 -44 -77 -63l-37 -34q-72 -67 -72 -249v-137h-197v18q0 204 142 345l40 40q188 186 188 385q0 137 -66.5 205t-199.5 68q-111 0 -183 -62q-33 -28 -41 -196l-1 -21h-99zM309 0v197h197 v-197h-197z" />
<glyph unicode="@" horiz-adv-x="1789" d="M90 578q0 333 246 616q280 323 699 323q283 0 472.5 -179.5t189.5 -447.5q0 -239 -149.5 -417t-350.5 -178q-87 0 -130.5 34.5t-43.5 103.5q0 20 33 160l9 42h-21q-99 -169 -195.5 -254t-190.5 -85q-92 0 -138 58t-46 174q0 238 165.5 441t359.5 203q47 0 165 -32 q6 -2 27 -7h95l-116 -573q-11 -57 -11 -97q0 -46 25.5 -69.5t75.5 -23.5q139 0 257 166.5t118 364.5q0 235 -176 395t-434 160q-335 0 -604 -267t-269 -599q0 -247 170 -406t433 -159q157 0 324 75l22 -56q-176 -81 -344 -81q-291 0 -479 173.5t-188 441.5zM619 577 q0 -79 23.5 -118.5t70.5 -39.5q73 0 163 100t198 300l42 211q-40 22 -85.5 32.5t-95.5 10.5q-135 0 -225.5 -142t-90.5 -354z" />
<glyph unicode="A" horiz-adv-x="1524" d="M0 0v62l21 1q86 4 102.5 21.5t83.5 174.5l521 1240h70l519 -1247q61 -134 86 -159.5t98 -29.5l23 -1v-62h-549v62h18q140 0 140 40q0 59 -42 157l-83 197h-634l-85 -197q-50 -116 -50 -155q0 -42 129 -42h16v-62h-384zM407 537h565l-281 674z" />
<glyph unicode="B" horiz-adv-x="1248" d="M43 0v62l19 1q121 8 143.5 34.5t22.5 161.5v962q0 136 -22.5 162t-143.5 34l-19 2v61h608q204 0 311 -84t107 -244q0 -130 -83.5 -226.5t-250.5 -158.5q185 -30 290 -135t105 -260q0 -188 -125 -280t-382 -92h-580zM435 259q0 -153 26 -166q49 -26 146 -26 q136 0 221 82.5t85 214.5q0 370 -478 370v-475zM435 802h61q179 0 268.5 82.5t89.5 246.5q0 155 -82.5 218.5t-285.5 63.5h-51v-611z" />
<glyph unicode="C" horiz-adv-x="1424" d="M105 743q0 367 189 570.5t530 203.5q174 0 457 -74v-283h-123l-1 20q-1 30 -2 59q0 98 -91 154.5t-248 56.5q-225 0 -359 -192t-134 -513q0 -322 157 -502.5t437 -180.5q183 0 390 113v-96q-201 -116 -468 -116q-341 0 -537.5 209t-196.5 571z" />
<glyph unicode="D" horiz-adv-x="1573" d="M43 0v62l19 1q121 8 143.5 34.5t22.5 161.5v962q0 136 -22.5 162t-143.5 34l-19 2v61h474l155 4l72 1q348 0 534 -184q185 -184 185 -529q0 -357 -191 -564.5t-520 -207.5h-709zM438 259q0 -135 27 -154q54 -37 210 -37q283 0 424.5 169.5t141.5 508.5q0 353 -152 510 t-493 157h-158v-1154z" />
<glyph unicode="E" horiz-adv-x="1160" d="M43 0v62l19 1q121 8 143.5 34.5t22.5 161.5v962q0 136 -22.5 162t-143.5 34l-19 2v61h1012v-259h-111l-2 19q-8 138 -20.5 149t-160.5 11h-323v-592l271 1q90 0 110.5 9.5t24.5 94.5l1 18h80v-326h-80l-1 18q-4 76 -24.5 90.5t-110.5 14.5h-271v-469q0 -116 27.5 -144.5 t142.5 -28.5h158q176 0 200.5 17.5t31.5 149.5l1 18h111v-271h-1067z" />
<glyph unicode="F" horiz-adv-x="1123" d="M43 0v62l19 1q121 8 143.5 34.5t22.5 161.5v962q0 136 -22.5 162t-143.5 34l-19 2v61h999v-259h-111l-1 19q-8 138 -21 149t-160 11h-311v-601h271q90 0 110 9t25 95l1 18h80v-327h-80l-1 19q-5 76 -25 90.5t-110 14.5h-271v-459q0 -118 21.5 -154.5t91.5 -36.5 q4 0 78 -5l19 -1v-62h-605z" />
<glyph unicode="G" horiz-adv-x="1499" d="M105 743q0 369 190 571.5t535 202.5q123 0 241 -19t231 -57v-269h-111l-1 20q-2 27 -2 57q0 94 -92 147.5t-256 53.5q-246 0 -379 -186.5t-133 -530.5q0 -322 148.5 -504t411.5 -182q81 0 208 33v291q0 137 -22 162.5t-145 34.5l-18 1v61h579v-61l-18 -1 q-123 -9 -145 -34.5t-22 -162.5v-335q-285 -73 -481 -73q-329 0 -524 211.5t-195 568.5z" />
<glyph unicode="H" horiz-adv-x="1580" d="M43 0v62l19 1q121 8 143.5 34.5t22.5 161.5v962q0 136 -22.5 162t-143.5 34l-19 2v61h580v-61l-19 -2q-122 -8 -144 -34t-22 -162v-409h704v409q0 136 -22.5 162t-144.5 34l-18 2v61h580v-61l-19 -2q-122 -8 -144 -34t-22 -162v-962q0 -135 22 -161.5t144 -34.5l19 -1 v-62h-580v62l18 1q123 8 145 34t22 162v467h-704v-467q0 -135 22 -161.5t144 -34.5l19 -1v-62h-580z" />
<glyph unicode="I" horiz-adv-x="666" d="M43 0v62l19 1q121 8 143.5 34.5t22.5 161.5v962q0 136 -22.5 162t-143.5 34l-19 2v61h580v-61l-19 -2q-122 -8 -144 -34t-22 -162v-962q0 -135 22 -161.5t144 -34.5l19 -1v-62h-580z" />
<glyph unicode="J" horiz-adv-x="864" d="M12 -5h117l1 -24l4 -74q0 -118 124 -118q77 0 126 63.5t49 163.5l-1 142v1073q-6 150 -22.5 169t-143.5 27l-19 2v61h580v-61l-19 -2q-122 -8 -144 -34t-22 -162v-951q0 -309 -104 -437q-104 -129 -355 -129q-80 0 -171 20v271z" />
<glyph unicode="K" horiz-adv-x="1450" d="M43 0v62l19 1q121 8 143.5 34.5t22.5 161.5v962q0 136 -22.5 162t-143.5 34l-19 2v61h580v-61l-19 -2q-122 -8 -144 -34t-22 -162v-467l448 467q147 164 147 180q0 18 -145 18h-18v61h456v-61l-17 -2q-117 -6 -143.5 -22t-182.5 -175l-378 -385l518 -577 q132 -142 169.5 -165.5t136.5 -29.5l21 -1v-62h-605v62h18q124 0 124 25q0 33 -124 175l-425 486v-489q0 -134 20 -161.5t122 -34.5l18 -1v-62h-555z" />
<glyph unicode="L" horiz-adv-x="1141" d="M43 0v62l19 1q121 8 143.5 34.5t22.5 161.5v962q0 136 -22.5 162t-143.5 34l-19 2v61h580v-61l-19 -2q-122 -8 -144 -34t-22 -162v-962q0 -133 20 -153t152 -20h151q179 0 204.5 20.5t32.5 169.5l1 20h105v-296h-1061z" />
<glyph unicode="M" horiz-adv-x="1762" d="M43 0v62l19 1q121 8 143.5 34.5t22.5 161.5v962q0 136 -22 162t-144 34l-19 2v61h424l444 -1077l435 1077h372v-61l-19 -2q-121 -8 -143.5 -34t-22.5 -162v-962q0 -135 22.5 -161.5t143.5 -34.5l19 -1v-62h-564v62l18 1q121 8 143 34.5t22 161.5v1017l-466 -1158h-73 l-460 1174v-1033q0 -135 22.5 -161.5t143.5 -34.5l19 -1v-62h-480z" />
<glyph unicode="N" horiz-adv-x="1539" d="M43 1419v61h333l844 -1149v890q0 136 -22.5 162t-144.5 34l-18 2v61h461v-61l-19 -2q-122 -8 -144 -34t-22 -162v-1241h-71l-918 1240v-961q0 -136 22 -161.5t145 -34.5l18 -1v-62h-463v62l18 1q123 9 145 34.5t22 161.5v962q0 137 -22 162.5t-145 33.5z" />
<glyph unicode="O" horiz-adv-x="1591" d="M105 740q0 361 185 569t506 208t506 -208t185 -569t-185 -569t-506 -208t-506 208t-185 569zM327 740q0 -333 124.5 -521t344.5 -188t344.5 188t124.5 521t-124.5 521.5t-344.5 188.5t-344.5 -188.5t-124.5 -521.5z" />
<glyph unicode="P" horiz-adv-x="1173" d="M43 0v62l19 1q121 8 143.5 34.5t22.5 161.5v962q0 136 -22.5 162t-143.5 34l-19 2v61h440l146 5l69 2q432 0 432 -391q0 -239 -157.5 -359t-473.5 -120h-63v-358q0 -133 24 -161.5t143 -34.5l43 -1v-62h-603zM436 685h75q199 0 298 102t99 305q0 173 -75.5 247t-252.5 74 h-144v-728z" />
<glyph unicode="Q" horiz-adv-x="1593" d="M105 740q0 361 185 569t507 208q319 0 505.5 -206.5t186.5 -559.5q0 -297 -114.5 -484.5t-343.5 -265.5q237 -138 737 -175l-249 -124q-252 75 -578 274q-75 -13 -145 -13q-320 0 -505.5 208.5t-185.5 568.5zM328 740q0 -335 123.5 -522t345.5 -187q221 0 345 187.5 t124 521.5q0 335 -124 522.5t-345 187.5t-345 -187.5t-124 -522.5z" />
<glyph unicode="R" horiz-adv-x="1390" d="M43 0v62l19 1q121 8 143.5 34.5t22.5 161.5v962q0 136 -22.5 162t-143.5 34l-19 2v61h356l180 5l80 2q459 0 459 -374q0 -311 -306 -416l290 -436q96 -138 125 -165t76 -29q14 -2 67 -4l20 -1v-62h-377l-404 651h-173v-392q0 -134 20.5 -161.5t121.5 -34.5l19 -1v-62 h-554zM438 719h74q392 0 392 371q0 176 -73.5 249.5t-250.5 73.5h-142v-694z" />
<glyph unicode="S" horiz-adv-x="1110" d="M119 30v285h105l1 -18q3 -50 3 -75q0 -79 65 -119q106 -66 234 -66q133 0 208 75.5t75 208.5q0 112 -48 178t-187 144l-105 60q-340 192 -340 419q0 171 122.5 283t307.5 112q80 0 173.5 -15.5t200.5 -47.5v-263h-111l-1 17q-4 54 -4 79q0 84 -60 123.5t-188 39.5 q-107 0 -173.5 -70.5t-66.5 -185.5q0 -98 46 -162t166 -132l105 -60q218 -124 294 -216t76 -231q0 -185 -137.5 -307.5t-343.5 -122.5q-120 0 -224.5 17t-192.5 50z" />
<glyph unicode="T" horiz-adv-x="1357" d="M43 1209v271h1271v-271h-105l-1 20q-3 37 -3 88q0 68 -40 74q-63 9 -145 9h-237v-1141q0 -133 24 -161.5t143 -34.5l43 -1v-62h-629v62l43 1q119 6 142.5 34.5t23.5 161.5v1141h-236q-83 0 -145 -9q-41 -6 -41 -74q0 -51 -2 -88l-1 -20h-105z" />
<glyph unicode="U" horiz-adv-x="1472" d="M16 1419v61h583v-61l-18 -2q-123 -8 -145 -33.5t-22 -162.5v-633q0 -230 12 -300t60 -133q97 -126 290 -126q181 0 290 110q61 62 79.5 137t18.5 268v677q0 136 -22.5 162t-144.5 34l-18 2v61h474v-61l-19 -2q-123 -8 -144.5 -33.5t-21.5 -162.5v-620q0 -206 -23 -302 t-92 -179q-130 -157 -402 -157q-550 0 -550 591v667q0 136 -22.5 162t-143.5 34z" />
<glyph unicode="V" horiz-adv-x="1431" d="M0 1419v61h537v-61h-22q-154 0 -154 -39q0 -16 60 -164l383 -932l360 933q12 30 20 51q32 82 32 107q0 44 -145 44h-22v61h382v-61l-22 -2q-69 -3 -84.5 -22.5t-78.5 -177.5l-478 -1236h-68l-507 1235q-65 150 -85 174t-87 27z" />
<glyph unicode="W" horiz-adv-x="1894" d="M0 1419v61h530v-61h-19q-97 0 -123 -10t-26 -46q0 -33 29 -148l219 -861l341 1108h70l341 -1139l256 891q43 152 43 170q0 35 -156 35h-18v61h407v-61l-18 -2q-107 -6 -118.5 -19t-63.5 -183l-362 -1234h-67l-349 1139l-343 -1139h-69l-316 1234q-45 170 -58 186t-109 16 z" />
<glyph unicode="X" horiz-adv-x="1345" d="M0 0v62l13 1q94 8 110 21.5t128 176.5l315 468l-295 493q-101 166 -115 178.5t-111 16.5l-20 2v61h573v-61h-18q-145 0 -145 -27q0 -24 84 -169l215 -364l251 364q96 139 96 170q0 26 -113 26h-18v61h370v-61l-23 -2q-66 -3 -88 -22.5t-132 -171.5l-289 -409l323 -553 q97 -161 114 -177t100 -21l20 -1v-62h-555v62h16q148 0 148 35q0 21 -84 163l-246 416l-286 -415q-95 -139 -95 -164q0 -35 142 -35h22v-62h-407z" />
<glyph unicode="Y" horiz-adv-x="1388" d="M0 1419v61h574v-61h-20q-144 0 -144 -34q0 -31 82 -170l277 -467l289 466q86 139 86 171q0 34 -139 34h-18v61h401v-61l-19 -2q-97 -6 -112.5 -19.5t-121.5 -182.5l-345 -559v-397q0 -136 21.5 -161.5t144.5 -34.5l19 -1v-62h-580v62l18 1q124 9 145.5 34.5t21.5 161.5 v397l-338 559q-107 176 -119 187t-103 15z" />
<glyph unicode="Z" horiz-adv-x="1295" d="M114 0v80l794 1320h-450q-132 0 -163 -12.5t-31 -65.5q0 -39 -3 -113l-2 -25h-111v296h996v-67l-791 -1320h448q186 0 208.5 16t28.5 156l1 19h112v-284h-1037z" />
<glyph unicode="[" horiz-adv-x="648" d="M173 -296v1875h395v-62h-222v-1751h222v-62h-395z" />
<glyph unicode="\" horiz-adv-x="1049" d="M5 1579h122l916 -1875h-122z" />
<glyph unicode="]" horiz-adv-x="648" d="M80 -234h222v1751h-222v62h395v-1875h-395v62z" />
<glyph unicode="^" d="M80 395l543 1085l543 -1085h-127l-416 829l-416 -829h-127z" />
<glyph unicode="_" horiz-adv-x="0" />
<glyph unicode="`" horiz-adv-x="1234" d="M367 1579h228l216 -296h-92z" />
<glyph unicode="a" horiz-adv-x="1112" d="M100 282q0 154 120 250q137 110 464 110h41v135q0 257 -195 257q-91 0 -161 -56q-41 -34 -52 -139l-1 -19h-134v199q208 91 386 91q354 0 354 -325v-484q0 -130 22.5 -183t78.5 -53q20 0 53 9l6 -74q-71 -25 -127 -25q-146 0 -185 174q-176 -174 -348 -174 q-138 0 -230 87.5t-92 219.5zM309 310q0 -94 61 -156t152 -62q86 0 203 79v409h-46q-174 0 -272 -72t-98 -198z" />
<glyph unicode="b" horiz-adv-x="1252" d="M-25 1517v62h382v-697q74 114 169.5 171t212.5 57q184 0 293 -145t109 -390q0 -272 -125 -436t-332 -164q-95 0 -177 37t-150 111h-12l-25 -135h-160v1332q0 135 -22.5 161.5t-143.5 34.5zM357 201q79 -58 154 -87t147 -29q137 0 205 109t68 327q0 231 -66 346.5 t-199 115.5q-89 0 -166 -42.5t-143 -127.5v-612z" />
<glyph unicode="c" horiz-adv-x="1042" d="M99 548q0 255 142.5 408.5t379.5 153.5q121 0 317 -49v-259h-123l-1 18q0 224 -197 224q-143 0 -227.5 -130t-84.5 -352q0 -227 100 -358t272 -131q148 0 261 50v-86q-156 -62 -305 -62q-238 0 -386 159t-148 414z" />
<glyph unicode="d" horiz-adv-x="1314" d="M111 511q0 272 125 435.5t332 163.5q95 0 176.5 -37t149.5 -111v358q0 137 -21.5 162.5t-144.5 33.5l-19 1v62h383v-1320q0 -136 21.5 -162t144.5 -34l19 -1v-62h-383v204q-72 -114 -167.5 -171.5t-213.5 -57.5q-184 0 -293 145.5t-109 390.5zM320 565 q0 -231 66.5 -346.5t199.5 -115.5q90 0 167 42.5t141 127.5v612q-77 58 -152 86.5t-148 28.5q-137 0 -205.5 -108.5t-68.5 -326.5z" />
<glyph unicode="e" horiz-adv-x="1085" d="M99 554q0 244 134 400t344 156q194 0 298.5 -131t104.5 -374v-19h-663q0 -253 88.5 -382t262.5 -129q183 0 312 75v-101q-188 -74 -343 -74q-239 0 -388.5 161t-149.5 418zM321 648h450l1 44q0 189 -49 273t-160 84t-176.5 -109t-65.5 -292z" />
<glyph unicode="f" horiz-adv-x="827" d="M62 0v62l19 1q121 8 143.5 34.5t22.5 161.5v740h-160v87h160v52q0 247 79.5 356.5t260.5 109.5q138 0 265 -74v-235h-124l-1 19q-3 60 -3 93q0 133 -145 133q-79 0 -107 -58.5t-28 -224.5v-171h272v-81h-272v-746q0 -135 24.5 -162t154.5 -34l31 -1v-62h-592z" />
<glyph unicode="g" horiz-adv-x="1169" d="M65 -187q0 68 54.5 125t163.5 104q-113 52 -113 142q0 51 47.5 100.5t142.5 96.5q-110 49 -165.5 136t-55.5 211q0 174 111.5 278t298.5 104q114 0 206 -42l381 30l-50 -120l-261 42q128 -123 128 -290t-112.5 -276t-286.5 -109q-66 0 -140 21q-35 -27 -53 -57.5 t-18 -64.5q0 -71 125 -71h173q249 0 343 -53t94 -193q0 -157 -142 -251.5t-376 -94.5q-223 0 -359 63.5t-136 168.5zM261 -154q0 -103 76.5 -154.5t229.5 -51.5q146 0 232.5 64t86.5 173q0 74 -52 111t-157 37h-342q-37 -36 -55.5 -80.5t-18.5 -98.5zM336 736 q0 -164 53 -246.5t158 -82.5t157 82t52 246q0 314 -208 314q-106 0 -159 -78t-53 -235z" />
<glyph unicode="h" horiz-adv-x="1295" d="M37 0v62l19 1q121 8 143.5 34.5t22.5 161.5v1061q0 135 -22.5 161.5t-143.5 34.5l-19 1v62h382v-697q75 114 173 171t219 57q140 0 220 -92q79 -92 79 -253v-506q7 -149 23 -168t144 -28l18 -1v-62h-567v62l18 1q128 9 144 28t23 168v475q0 140 -36.5 194.5t-130.5 54.5 q-66 0 -148 -41.5t-179 -125.5v-557q0 -136 22 -162t145 -34l19 -1v-62h-568z" />
<glyph unicode="i" horiz-adv-x="629" d="M37 0v62l19 1q121 8 143.5 34.5t22.5 161.5v568q0 135 -22.5 161t-143.5 35l-19 1v62h382v-827q0 -136 22 -162t145 -34l19 -1v-62h-568zM222 1283v197h197v-197h-197z" />
<glyph unicode="j" horiz-adv-x="709" d="M-74 -136h111l1 -18q0 -115 27.5 -159.5t99.5 -44.5q92 0 121 52.5t29 223.5v909q0 136 -22 161.5t-145 34.5l-18 1v62h382v-1074q0 -215 -91 -323t-273 -108q-97 0 -222 39v244zM315 1283v197h197v-197h-197z" />
<glyph unicode="k" horiz-adv-x="1228" d="M37 0v62l19 1q121 8 143.5 34.5t22.5 161.5v1061q0 135 -22.5 161.5t-143.5 34.5l-19 1v62h382v-996h47l252 242q162 165 162 177q0 19 -55 20.5t-76 1.5h-21v62h423v-62l-19 -1q-106 -7 -135.5 -25.5t-187.5 -174.5l-190 -187l326 -383q124 -140 155.5 -162.5 t109.5 -27.5l19 -1v-62h-305l-458 534h-47v-275q0 -134 20.5 -161.5t121.5 -34.5l19 -1v-62h-543z" />
<glyph unicode="l" horiz-adv-x="642" d="M37 0v62l19 1q121 8 143.5 34.5t22.5 161.5v1061q0 135 -22.5 161.5t-143.5 34.5l-19 1v62h382v-1320q0 -136 22 -162t145 -34l19 -1v-62h-568z" />
<glyph unicode="m" horiz-adv-x="1937" d="M37 0v62l19 1q121 8 143.5 34.5t22.5 161.5v568q0 135 -22.5 161t-143.5 35l-19 1v62h382v-204q86 114 179.5 171t195.5 57q119 0 189 -57t90 -171q95 114 192 171t195 57q292 0 292 -320v-531q0 -136 21.5 -161.5t144.5 -34.5l19 -1v-62h-568v62l19 1q123 9 144.5 34.5 t21.5 161.5v495q0 129 -33.5 178.5t-119.5 49.5q-72 0 -150.5 -42t-164.5 -126v-555q0 -135 22 -161.5t144 -34.5l19 -1v-62h-568v62l19 1q123 8 144.5 34t21.5 162v495q0 127 -33 177.5t-116 50.5q-78 0 -158 -42t-162 -126v-555q0 -136 22 -162t145 -34l19 -1v-62h-568z " />
<glyph unicode="n" horiz-adv-x="1295" d="M37 0v62l19 1q121 8 143.5 34.5t22.5 161.5v568q0 135 -22.5 161t-143.5 35l-19 1v62h382v-204q75 114 173 171t219 57q140 0 220 -92q79 -92 79 -253v-506q7 -149 23 -168t144 -28l18 -1v-62h-567v62l18 1q128 9 144 28t23 168v475q0 140 -36.5 194.5t-130.5 54.5 q-66 0 -148 -41.5t-179 -125.5v-557q0 -136 22 -162t145 -34l19 -1v-62h-568z" />
<glyph unicode="o" horiz-adv-x="1234" d="M99 543q0 263 139 415t379 152q241 0 379.5 -152t138.5 -415t-139 -415.5t-379 -152.5t-379 152.5t-139 415.5zM309 543q0 -219 87.5 -362.5t220.5 -143.5t221 143.5t88 362.5q0 217 -88 361.5t-221 144.5q-132 0 -220 -144.5t-88 -361.5z" />
<glyph unicode="p" horiz-adv-x="1314" d="M37 -333l19 1q121 9 143.5 35t22.5 161v963q0 135 -22.5 161t-143.5 35l-19 1v62h382v-204q74 114 169.5 171t212.5 57q184 0 293 -145t109 -390q0 -272 -125 -436t-332 -164q-95 0 -177 37t-150 111v-259q0 -136 22 -161.5t145 -34.5l19 -1v-62h-568v62zM419 201 q79 -58 154 -87t147 -29q137 0 205 109t68 327q0 231 -66 346.5t-199 115.5q-89 0 -166 -42.5t-143 -127.5v-612z" />
<glyph unicode="q" horiz-adv-x="1265" d="M111 511q0 272 125 435.5t332 163.5q95 0 176.5 -37t149.5 -111v124h198v-1222q0 -136 21.5 -161.5t144.5 -34.5l19 -1v-62h-568v62l19 1q123 9 144.5 34.5t21.5 161.5v340q-72 -114 -167.5 -171.5t-213.5 -57.5q-184 0 -293 145.5t-109 390.5zM320 565 q0 -231 66.5 -346.5t199.5 -115.5q91 0 168 42.5t140 127.5v612q-77 58 -152 86.5t-148 28.5q-137 0 -205.5 -108.5t-68.5 -326.5z" />
<glyph unicode="r" horiz-adv-x="901" d="M37 0v62l19 1q121 8 143.5 34.5t22.5 161.5v568q0 135 -22.5 161t-143.5 35l-19 1v62h382v-204q135 228 353 228q30 0 67 -11v-297h-111l-1 18q-11 93 -19.5 110.5t-45.5 17.5q-148 0 -243 -158v-531q0 -135 23.5 -162t143.5 -34l43 -1v-62h-592z" />
<glyph unicode="s" horiz-adv-x="1032" d="M139 56v276h111l2 -19q13 -149 19.5 -168.5t52.5 -49.5q90 -58 201 -58q90 0 147.5 54.5t57.5 140.5q0 76 -38 121q-39 44 -137 82l-101 39q-163 63 -236 142q-73 78 -73 190q0 132 105.5 218t268.5 86q159 0 329 -61v-259h-111v18q-6 98 -16 135.5t-32 55.5 q-65 51 -157 51q-87 0 -144.5 -56t-57.5 -141q0 -70 47 -112q46 -43 186 -100l92 -38q151 -62 211 -128q59 -67 59 -172q0 -145 -115.5 -236.5t-300.5 -91.5q-195 0 -370 81z" />
<glyph unicode="t" horiz-adv-x="802" d="M86 1005v81h160v197l198 49v-246h302v-81h-302v-692q0 -140 37 -199t126 -59q47 0 114 31v-80q-75 -31 -143 -31q-173 0 -252.5 87t-79.5 277v666h-160z" />
<glyph unicode="u" horiz-adv-x="1295" d="M0 1024v62h382v-734q0 -125 44.5 -187.5t133.5 -62.5q82 0 161 42t155 126v557q-7 149 -23 168t-144 28l-18 1v62h382v-827q7 -149 23 -168t144 -28l19 -1v-62h-383v204q-75 -114 -172.5 -171.5t-218.5 -57.5q-140 0 -220 93q-80 92 -80 253v506q0 135 -22.5 161 t-143.5 35z" />
<glyph unicode="v" horiz-adv-x="1117" d="M0 1024v62h471v-62h-19q-132 0 -132 -44q0 -17 61 -162l245 -579l252 578q60 137 60 163q0 44 -121 44h-22v62h322v-62l-21 -1q-37 -3 -57 -25q-18 -20 -89 -181l-375 -829h-61l-352 832q-55 131 -79.5 165.5t-65.5 37.5z" />
<glyph unicode="w" horiz-adv-x="1629" d="M1 1024v62h487v-62h-21q-153 0 -153 -46q0 -44 34 -151l169 -543l315 796h60l321 -816l196 563q41 119 41 150q0 47 -155 47h-22v62h355v-62l-22 -1q-69 -4 -100 -106q-9 -29 -30 -90l-295 -839h-55l-329 826l-316 -826h-61l-267 839q-41 126 -63.5 159.5t-69.5 36.5z " />
<glyph unicode="x" horiz-adv-x="1141" d="M-2 1024v62h492v-62h-20q-109 0 -109 -30q0 -20 112 -170l155 -209l151 205q96 131 96 174q0 30 -91 30h-23v62h346v-62l-20 -1q-57 -4 -116 -78q-54 -67 -97 -121l-206 -259l236 -307q145 -189 224 -195l16 -1v-62h-494v62h18q119 0 119 22q0 20 -113 173l-169 219 l-169 -219q-115 -150 -115 -164q0 -31 113 -31h23v-62h-353v62l16 1q41 3 75 33t147 161l227 269l-230 298q-115 144 -143.5 169.5t-79.5 29.5z" />
<glyph unicode="y" horiz-adv-x="1129" d="M0 1024v62h496v-62h-21q-136 0 -136 -36q0 -18 57 -165l243 -583l259 586q57 129 57 155q0 43 -121 43h-27v62h322v-62l-19 -1q-62 -4 -106 -113q-8 -19 -38 -86l-551 -1219h-249l356 395l-342 823q-54 132 -80 164.5t-80 35.5z" />
<glyph unicode="z" horiz-adv-x="1220" d="M136 0v62l688 962h-355q-147 0 -172 -10.5t-25 -72.5q0 -42 -2 -72l-1 -21h-105v238h889v-62l-680 -950h397q157 0 180.5 17.5t23.5 134.5l1 24h105v-250h-944z" />
<glyph unicode="{" horiz-adv-x="703" d="M49 611v61h53q181 0 181 169q0 38 -23 162l-19 97q-19 104 -19 167q0 136 100 224t255 88h27v-62h-27q-195 0 -195 -168q0 -22 19 -111l13 -69q19 -96 19 -180q0 -253 -220 -347q220 -96 220 -348q0 -83 -19 -180l-13 -69q-19 -89 -19 -113q0 -166 195 -166h27v-62h-27 q-155 0 -255 88t-100 225q0 62 19 166l19 97q23 124 23 161q0 170 -181 170h-53z" />
<glyph unicode="|" horiz-adv-x="493" d="M179 -296v1875h136v-1875h-136z" />
<glyph unicode="}" horiz-adv-x="703" d="M99 -234h27q196 0 196 168q0 22 -20 111l-13 69q-19 96 -19 180q0 252 221 348q-221 94 -221 347q0 83 19 180l13 69q20 89 20 113q0 166 -196 166h-27v62h27q155 0 255 -88t100 -224q0 -63 -19 -167l-18 -97q-24 -124 -24 -161q0 -170 182 -170h52v-61h-52 q-182 0 -182 -169q0 -38 24 -162l18 -97q19 -104 19 -167q0 -136 -100 -224t-255 -88h-27v62z" />
<glyph unicode="~" d="M80 438q9 159 77.5 249.5t179.5 90.5q77 0 261 -95l124 -64q153 -79 225 -79q112 0 157 194h62q-33 -327 -262 -327q-95 0 -255 82l-123 63q-173 91 -229 91q-114 0 -155 -205h-62z" />
<glyph unicode="&#xa0;" />
<glyph unicode="&#xa1;" horiz-adv-x="543" d="M173 -99l68 790h62l67 -790v-296h-197v296zM173 888v198h197v-198h-197z" />
<glyph unicode="&#xa2;" d="M167 747q0 496 475 561v172h62v-167q161 -14 302 -61v-253h-111l-1 19q-4 56 -4 69q0 81 -39.5 114t-146.5 41v-969q31 -3 46 -3q96 0 256 61v-97q-139 -53 -302 -63v-171h-62v176q-213 19 -344 176t-131 395zM377 723q0 -378 265 -443v963q-265 -58 -265 -520z" />
<glyph unicode="&#xa3;" d="M253 0v148q124 33 167 114.5t43 284.5v193h-173v62h173v222q0 241 92.5 361t277.5 120q138 0 271 -70v-214h-98l-2 19q-7 131 -36 167.5t-125 36.5q-106 0 -144.5 -64.5t-38.5 -241.5v-336h235v-62h-235v-154q0 -280 -282 -438h726v-148h-851z" />
<glyph unicode="&#xa4;" d="M95 256l192 192q-109 142 -109 292q0 151 109 292l-192 193l43 43l192 -192q69 54 142 81t150 27q155 0 292 -108l193 192l43 -43l-192 -193q108 -141 108 -292q0 -150 -108 -292l192 -192l-43 -43l-193 192q-68 -54 -141 -81t-151 -27q-154 0 -292 108l-192 -192z M283 740q0 -140 99.5 -239.5t239.5 -99.5q141 0 240 99.5t99 239.5q0 141 -99 240t-240 99q-140 0 -239.5 -99t-99.5 -240z" />
<glyph unicode="&#xa5;" d="M-32 1419v61h561v-61h-19q-126 0 -126 -35q0 -31 40 -93l280 -437l299 458q39 60 39 76q0 31 -123 31h-26v61h426v-61l-17 -2q-95 -6 -112 -21t-152 -217l-298 -451h308v-62h-308v-210h308v-61h-308v-136q0 -136 21.5 -161.5t144.5 -34.5l19 -1v-62h-568v62l19 1 q123 9 144.5 34.5t21.5 161.5v136h-308v61h308v210h-308v62h308l-298 454q-124 186 -148 208.5t-106 26.5z" />
<glyph unicode="&#xa6;" horiz-adv-x="493" d="M179 -296v814h136v-814h-136zM179 765v814h136v-814h-136z" />
<glyph unicode="&#xa7;" d="M173 -37h99l1 -19q5 -84 11.5 -99t46.5 -38q117 -67 274 -67q133 0 213 66.5t80 176.5q0 73 -44 113.5t-188 101.5l-107 45q-207 87 -285 164t-78 192q0 153 171 290q-168 88 -168 258q0 171 129.5 270.5t349.5 99.5q175 0 346 -56v-227h-98l-2 18q-6 115 -40 138 q-97 66 -232 66q-122 0 -200.5 -70.5t-78.5 -180.5q0 -145 205 -221l107 -39q368 -137 368 -371q0 -143 -161 -283q180 -96 180 -279q0 -155 -127.5 -244t-349.5 -89q-200 0 -422 63v221zM362 681q0 -94 72.5 -158.5t259.5 -137.5l144 -56q61 83 61 183q0 71 -47 119 t-299 160l-139 61q-52 -91 -52 -171z" />
<glyph unicode="&#xa8;" horiz-adv-x="1234" d="M333 1283v173h173v-173h-173zM728 1283v173h173v-173h-173z" />
<glyph unicode="&#xa9;" horiz-adv-x="1752" d="M99 740q0 322 228 549.5t549 227.5q322 0 550 -227.5t228 -549.5q0 -321 -228 -549t-550 -228q-321 0 -549 228t-228 549zM161 740q0 -295 210 -505t505 -210q296 0 506 210t210 505q0 296 -210 506t-506 210q-295 0 -505 -210t-210 -506zM488 740q0 197 117.5 317.5 t310.5 120.5q51 0 118.5 -9t150.5 -28l-13 -184l-75 12l-11 108q-44 21 -86.5 31t-83.5 10q-126 0 -203.5 -101t-77.5 -265q0 -165 87 -271t222 -106q87 0 228 61v-91q-144 -49 -262 -49q-183 0 -302.5 125.5t-119.5 318.5z" />
<glyph unicode="&#xaa;" horiz-adv-x="876" d="M68 922q0 125 106.5 187.5t318.5 62.5h68v72q0 106 -42.5 159t-128.5 53q-114 0 -146.5 -29t-38.5 -135l-1 -21h-86v181q140 66 291 66q181 0 253 -60q72 -61 72 -214v-302q0 -128 66 -128q24 0 58 12v-64q-105 -47 -159 -47q-91 0 -138 111q-59 -55 -125 -82.5 t-139 -27.5q-97 0 -163 59t-66 147zM241 943q0 -64 34 -96.5t102 -32.5q47 0 93 22t91 65v212h-55q-132 0 -198.5 -42.5t-66.5 -127.5z" />
<glyph unicode="&#xab;" horiz-adv-x="1086" d="M99 543l423 432l50 -39l-274 -393l274 -392l-50 -40zM490 543l423 432l50 -39l-274 -393l274 -392l-50 -40z" />
<glyph unicode="&#xac;" d="M80 709v111h1086v-475h-130v364h-956z" />
<glyph unicode="&#xad;" horiz-adv-x="666" d="M99 537v148h469v-148h-469z" />
<glyph unicode="&#xae;" d="M173 1073q0 185 130 314.5t314 129.5q185 0 314.5 -129.5t129.5 -314.5q0 -184 -130 -314t-314 -130t-314 130t-130 314zM229 1073q0 -159 114.5 -273.5t273.5 -114.5t274 114.5t115 273.5q0 160 -115 274.5t-274 114.5t-273.5 -115t-114.5 -274zM397 822v59h75v388h-72 v62h180q239 0 239 -139q0 -112 -109 -151l79 -162h86v-57h-135l-108 207h-85v-207h-150zM546 1089h49q149 0 149 95q0 85 -139 85h-59v-180z" />
<glyph unicode="&#xb0;" horiz-adv-x="531" d="M93 1345q0 72 50.5 122t122.5 50t122 -50t50 -122t-50 -122.5t-122 -50.5t-122.5 50.5t-50.5 122.5zM155 1345q0 -45 33 -78t78 -33q44 0 77 33t33 78q0 44 -33 77.5t-77 33.5q-45 0 -78 -33.5t-33 -77.5z" />
<glyph unicode="&#xb1;" d="M80 0v111h1086v-111h-1086zM80 685v111h487v388h111v-388h488v-111h-488v-389h-111v389h-487z" />
<glyph unicode="&#xb2;" horiz-adv-x="827" d="M122 728v75q51 130 164 221l60 48q163 131 163 228q0 70 -31.5 105t-94.5 35q-82 0 -103.5 -19t-26.5 -92l-2 -34h-110v170q70 26 132.5 39t117.5 13q129 0 210.5 -60.5t81.5 -157.5q0 -125 -180 -233l-68 -40q-123 -73 -161 -167h406v-131h-558z" />
<glyph unicode="&#xb3;" horiz-adv-x="827" d="M136 739v171l112 -1l1 -32q3 -45 34 -68t91 -23q68 0 101.5 40.5t33.5 120.5q0 76 -49.5 114t-148.5 38h-98v77h66q106 0 158.5 35t52.5 105q0 63 -31.5 94t-94.5 31q-64 0 -85.5 -16t-24.5 -65l-2 -28h-110v150q56 18 114.5 26.5t119.5 8.5q141 0 211 -47.5t70 -142.5 q0 -53 -32 -98t-96 -82q77 -30 115 -79.5t38 -118.5q0 -120 -79 -180t-237 -60q-60 0 -117.5 7.5t-112.5 22.5z" />
<glyph unicode="&#xb4;" horiz-adv-x="1234" d="M423 1283l216 296h228l-351 -296h-93z" />
<glyph unicode="&#xb5;" horiz-adv-x="1283" d="M0 1024v62h382v-734q0 -138 40 -194t138 -56q85 0 164 42t152 126v557q-7 149 -23 168t-144 28l-18 1v62h382v-827q7 -149 23 -168t144 -28l18 -1v-62h-382v204q-67 -115 -158 -172.5t-205 -57.5q-39 0 -72 8.5t-59 25.5v-304h-197v1123q0 135 -22.5 161t-143.5 35z" />
<glyph unicode="&#xb6;" d="M86 1157q0 330 343 330l178 -5l117 -2h226v-1776h-74v1678h-247v-1678h-74v1036q-210 0 -339.5 115t-129.5 302z" />
<glyph unicode="&#xb8;" horiz-adv-x="1234" d="M496 -313q40 -9 67 -9q50 0 75 20.5t25 60.5q0 79 -123 99l87 142h76l-67 -108q170 -34 170 -148q0 -69 -45.5 -104t-137.5 -35q-59 0 -126 18z" />
<glyph unicode="&#xb9;" horiz-adv-x="827" d="M162 734v74l99 5q48 3 58 13.5t10 61.5v456q0 73 -69 73l-98 3v74l333 23v-631q0 -46 11 -57t60 -15l89 -6v-74h-493z" />
<glyph unicode="&#xba;" horiz-adv-x="876" d="M68 1117q0 183 100.5 291.5t269.5 108.5q170 0 270 -108.5t100 -291.5q0 -184 -100.5 -292.5t-269.5 -108.5t-269.5 108.5t-100.5 292.5zM253 1113q0 -168 46.5 -252t138.5 -84q93 0 139 84t46 252q0 172 -46 257.5t-139 85.5q-92 0 -138.5 -85.5t-46.5 -257.5z" />
<glyph unicode="&#xbb;" horiz-adv-x="1086" d="M123 149l273 394l-273 391l50 41l423 -432l-423 -432zM514 149l273 394l-273 391l50 41l423 -432l-423 -432z" />
<glyph unicode="&#xbc;" horiz-adv-x="1752" d="M190 734v74l99 5q48 3 58 13.5t10 61.5v456q0 73 -69 73l-98 3v74l333 23v-631q0 -74 71 -74l89 -4v-74h-493zM311 -37l1108 1554h137l-1109 -1554h-136zM953 205v80l436 499h105v-460h112v-119h-112v-55q0 -52 8 -61t59 -12l39 -3v-74h-383v74l38 3q68 6 76.5 13.5 t8.5 60.5v54h-387zM1099 324h241v277z" />
<glyph unicode="&#xbd;" horiz-adv-x="1752" d="M136 734v74l99 5q48 3 58 13.5t10 61.5v456q0 73 -69 73l-98 3v74l333 23v-631q0 -74 71 -74l89 -4v-74h-493zM198 -37l1108 1554h137l-1109 -1554h-136zM1039 0v75q52 130 165 221l60 48q162 131 162 229q0 70 -31.5 104.5t-94.5 34.5q-81 0 -103 -18.5t-27 -92.5 l-2 -34h-110v171q71 26 133.5 39t116.5 13q129 0 211 -61t82 -158q0 -125 -181 -233l-68 -40q-122 -73 -161 -167h406v-131h-558z" />
<glyph unicode="&#xbe;" horiz-adv-x="1752" d="M112 739v171l112 -1l1 -32q3 -45 34 -68t91 -23q68 0 101.5 40.5t33.5 120.5q0 76 -49.5 114t-148.5 38h-98v77h66q106 0 158.5 35t52.5 105q0 63 -31.5 94t-94.5 31q-64 0 -85.5 -16t-24.5 -65l-2 -28h-110v150q56 18 114.5 26.5t119.5 8.5q141 0 211 -47.5t70 -142.5 q0 -53 -32 -98t-96 -82q77 -30 115 -79.5t38 -118.5q0 -120 -79 -180t-237 -60q-60 0 -117.5 7.5t-112.5 22.5zM272 -37l1108 1554h138l-1110 -1554h-136zM952 205v80l436 499h104v-460h113v-119h-113v-55q0 -52 8.5 -61t59.5 -12l38 -3v-74h-382v74l37 3q69 6 77.5 13.5 t8.5 60.5v54h-387zM1097 324h242v277z" />
<glyph unicode="&#xbf;" horiz-adv-x="984" d="M96 -104q0 160 197 312q56 43 77 63l36 34q72 67 72 248v138h198v-19q0 -204 -143 -345l-40 -39q-187 -186 -187 -385q0 -136 66.5 -204.5t199.5 -68.5q111 0 182 61q33 28 42 196l1 22h99v-274q-190 -67 -364 -67q-197 0 -316.5 89.5t-119.5 238.5zM478 888v198h198 v-198h-198z" />
<glyph unicode="&#xc0;" horiz-adv-x="1524" d="M0 0v62l21 1q86 4 102.5 21.5t83.5 174.5l521 1240h70l519 -1247q61 -134 86 -159.5t98 -29.5l23 -1v-62h-549v62h18q140 0 140 40q0 59 -42 157l-83 197h-634l-85 -197q-50 -116 -50 -155q0 -42 129 -42h16v-62h-384zM407 537h565l-281 674zM512 1900h228l216 -296h-92z " />
<glyph unicode="&#xc1;" horiz-adv-x="1524" d="M0 0v62l21 1q86 4 102.5 21.5t83.5 174.5l521 1240h70l519 -1247q61 -134 86 -159.5t98 -29.5l23 -1v-62h-549v62h18q140 0 140 40q0 59 -42 157l-83 197h-634l-85 -197q-50 -116 -50 -155q0 -42 129 -42h16v-62h-384zM407 537h565l-281 674zM593 1604l216 296h228 l-351 -296h-93z" />
<glyph unicode="&#xc2;" horiz-adv-x="1524" d="M0 0v62l21 1q86 4 102.5 21.5t83.5 174.5l521 1240h70l519 -1247q61 -134 86 -159.5t98 -29.5l23 -1v-62h-549v62h18q140 0 140 40q0 59 -42 157l-83 197h-634l-85 -197q-50 -116 -50 -155q0 -42 129 -42h16v-62h-384zM407 537h565l-281 674zM429 1604l222 296h222 l222 -296h-86l-247 197l-247 -197h-86z" />
<glyph unicode="&#xc3;" horiz-adv-x="1524" d="M0 0v62l21 1q86 4 102.5 21.5t83.5 174.5l521 1240h70l519 -1247q61 -134 86 -159.5t98 -29.5l23 -1v-62h-549v62h18q140 0 140 40q0 59 -42 157l-83 197h-634l-85 -197q-50 -116 -50 -155q0 -42 129 -42h16v-62h-384zM407 537h565l-281 674zM435 1604q40 235 229 235 q53 0 115 -38l35 -22q54 -34 106 -34q98 0 117 93h62q-40 -234 -230 -234q-52 0 -114 38l-35 22q-55 34 -106 34q-91 0 -117 -94h-62z" />
<glyph unicode="&#xc4;" horiz-adv-x="1524" d="M0 0v62l21 1q86 4 102.5 21.5t83.5 174.5l521 1240h70l519 -1247q61 -134 86 -159.5t98 -29.5l23 -1v-62h-549v62h18q140 0 140 40q0 59 -42 157l-83 197h-634l-85 -197q-50 -116 -50 -155q0 -42 129 -42h16v-62h-384zM407 537h565l-281 674zM478 1604v173h173v-173h-173 zM873 1604v173h173v-173h-173z" />
<glyph unicode="&#xc5;" horiz-adv-x="1524" d="M-2 0v62l21 1q86 4 102 20.5t84 175.5l525 1239q-54 12 -88.5 54.5t-34.5 101.5q0 66 47 113t114 47q66 0 113 -47t47 -113q0 -59 -34.5 -101.5t-92.5 -54.5l519 -1246q61 -134 85.5 -159.5t98.5 -29.5l20 -1v-62h-549v62h19q139 0 139 41q0 63 -39 156l-83 197h-639 l-85 -197q-50 -116 -50 -155q0 -42 129 -42h16v-62h-384zM406 537h562l-282 680zM669 1654q0 -41 29 -70t70 -29t69.5 28.5t28.5 70.5q0 41 -28.5 69.5t-69.5 28.5t-70 -28.5t-29 -69.5z" />
<glyph unicode="&#xc6;" horiz-adv-x="1881" d="M-2 2v62l23 1q46 2 67.5 25.5t110.5 167.5l743 1222h830v-259h-111l-1 19q-8 136 -21.5 148t-159.5 12h-323v-592l283 1q93 0 111.5 9t23.5 95l1 18h93v-326h-93l-1 18q-5 76 -23.5 90.5t-111.5 14.5h-283v-469q0 -116 27.5 -144.5t142.5 -28.5h157q172 0 199 17.5 t34 130.5l1 19h111v-253h-1068v62l19 1q128 9 144 28t23 168v197h-538l-123 -198q-27 -45 -46 -79q-42 -71 -42 -84q-2 -28 72 -28q17 0 64 -2l23 -1v-62h-358zM459 537h487v801z" />
<glyph unicode="&#xc7;" horiz-adv-x="1424" d="M105 731q0 377 187 581.5t532 204.5q87 0 201.5 -18.5t255.5 -55.5v-283h-123l-1 20q-2 30 -2 59q0 98 -91 154.5t-248 56.5q-225 0 -359 -192t-134 -513q0 -322 157 -502.5t437 -180.5q183 0 390 113v-96q-192 -122 -496 -122l-39 -67q210 -38 210 -151 q0 -67 -53.5 -100.5t-160.5 -33.5q-79 0 -167 22v66q16 0 59 -7q22 -4 58 -4q60 0 90 16.5t30 49.5q0 71 -170 104l71 110q-304 36 -469 236.5t-165 532.5z" />
<glyph unicode="&#xc8;" horiz-adv-x="1160" d="M43 0v62l19 1q121 8 143.5 34.5t22.5 161.5v962q0 136 -22.5 162t-143.5 34l-19 2v61h1012v-259h-111l-2 19q-8 138 -20.5 149t-160.5 11h-323v-592l271 1q90 0 110.5 9.5t24.5 94.5l1 18h80v-326h-80l-1 18q-4 76 -24.5 90.5t-110.5 14.5h-271v-469q0 -116 27.5 -144.5 t142.5 -28.5h158q176 0 200.5 17.5t31.5 149.5l1 18h111v-271h-1067zM348 1900h228l216 -296h-92z" />
<glyph unicode="&#xc9;" horiz-adv-x="1160" d="M43 0v62l19 1q121 8 143.5 34.5t22.5 161.5v962q0 136 -22.5 162t-143.5 34l-19 2v61h1012v-259h-111l-2 19q-8 138 -20.5 149t-160.5 11h-323v-592l271 1q90 0 110.5 9.5t24.5 94.5l1 18h80v-326h-80l-1 18q-4 76 -24.5 90.5t-110.5 14.5h-271v-469q0 -116 27.5 -144.5 t142.5 -28.5h158q176 0 200.5 17.5t31.5 149.5l1 18h111v-271h-1067zM416 1604l216 296h228l-351 -296h-93z" />
<glyph unicode="&#xca;" horiz-adv-x="1160" d="M43 0v62l19 1q121 8 143.5 34.5t22.5 161.5v962q0 136 -22.5 162t-143.5 34l-19 2v61h1012v-259h-111l-2 19q-8 138 -20.5 149t-160.5 11h-323v-592l271 1q90 0 110.5 9.5t24.5 94.5l1 18h80v-326h-80l-1 18q-4 76 -24.5 90.5t-110.5 14.5h-271v-469q0 -116 27.5 -144.5 t142.5 -28.5h158q176 0 200.5 17.5t31.5 149.5l1 18h111v-271h-1067zM265 1604l222 296h222l222 -296h-86l-247 197l-247 -197h-86z" />
<glyph unicode="&#xcb;" horiz-adv-x="1160" d="M43 0v62l19 1q121 8 143.5 34.5t22.5 161.5v962q0 136 -22.5 162t-143.5 34l-19 2v61h1012v-259h-111l-2 19q-8 138 -20.5 149t-160.5 11h-323v-592l271 1q90 0 110.5 9.5t24.5 94.5l1 18h80v-326h-80l-1 18q-4 76 -24.5 90.5t-110.5 14.5h-271v-469q0 -116 27.5 -144.5 t142.5 -28.5h158q176 0 200.5 17.5t31.5 149.5l1 18h111v-271h-1067zM326 1604v173h173v-173h-173zM721 1604v173h173v-173h-173z" />
<glyph unicode="&#xcc;" horiz-adv-x="666" d="M43 0v62l19 1q121 8 143.5 34.5t22.5 161.5v962q0 136 -22.5 162t-143.5 34l-19 2v61h580v-61l-19 -2q-122 -8 -144 -34t-22 -162v-962q0 -135 22 -161.5t144 -34.5l19 -1v-62h-580zM83 1900h228l216 -296h-92z" />
<glyph unicode="&#xcd;" horiz-adv-x="666" d="M43 0v62l19 1q121 8 143.5 34.5t22.5 161.5v962q0 136 -22.5 162t-143.5 34l-19 2v61h580v-61l-19 -2q-122 -8 -144 -34t-22 -162v-962q0 -135 22 -161.5t144 -34.5l19 -1v-62h-580zM164 1604l216 296h228l-351 -296h-93z" />
<glyph unicode="&#xce;" horiz-adv-x="666" d="M0 1604l222 296h222l222 -296h-86l-247 197l-247 -197h-86zM43 0v62l19 1q121 8 143.5 34.5t22.5 161.5v962q0 136 -22.5 162t-143.5 34l-19 2v61h580v-61l-19 -2q-122 -8 -144 -34t-22 -162v-962q0 -135 22 -161.5t144 -34.5l19 -1v-62h-580z" />
<glyph unicode="&#xcf;" horiz-adv-x="666" d="M43 0v62l19 1q121 8 143.5 34.5t22.5 161.5v962q0 136 -22.5 162t-143.5 34l-19 2v61h580v-61l-19 -2q-122 -8 -144 -34t-22 -162v-962q0 -135 22 -161.5t144 -34.5l19 -1v-62h-580zM49 1604v173h173v-173h-173zM444 1604v173h173v-173h-173z" />
<glyph unicode="&#xd0;" horiz-adv-x="1573" d="M19 716v67h210v438q0 137 -22 162.5t-145 33.5l-18 2v61h473l156 4l72 1q348 0 534 -184q185 -184 185 -529q0 -358 -191 -565t-521 -207h-708v62l18 1q123 9 145 34.5t22 161.5v457h-210zM438 259q0 -136 27 -154q55 -37 211 -37q283 0 424 169.5t141 507.5 q0 353 -151.5 510.5t-493.5 157.5h-158v-630h346v-67h-346v-457z" />
<glyph unicode="&#xd1;" horiz-adv-x="1539" d="M43 1419v61h333l844 -1149v890q0 136 -22.5 162t-144.5 34l-18 2v61h461v-61l-19 -2q-122 -8 -144 -34t-22 -162v-1241h-71l-918 1240v-961q0 -136 22 -161.5t145 -34.5l18 -1v-62h-463v62l18 1q123 9 145 34.5t22 161.5v962q0 137 -22 162.5t-145 33.5zM443 1604 q40 235 229 235q53 0 115 -38l35 -22q54 -34 106 -34q98 0 117 93h62q-40 -234 -230 -234q-52 0 -114 38l-35 22q-55 34 -106 34q-91 0 -117 -94h-62z" />
<glyph unicode="&#xd2;" horiz-adv-x="1591" d="M105 740q0 361 185 569t506 208t506 -208t185 -569t-185 -569t-506 -208t-506 208t-185 569zM327 740q0 -333 124.5 -521t344.5 -188t344.5 188t124.5 521t-124.5 521.5t-344.5 188.5t-344.5 -188.5t-124.5 -521.5zM546 1900h228l216 -296h-92z" />
<glyph unicode="&#xd3;" horiz-adv-x="1591" d="M105 740q0 361 185 569t506 208t506 -208t185 -569t-185 -569t-506 -208t-506 208t-185 569zM327 740q0 -333 124.5 -521t344.5 -188t344.5 188t124.5 521t-124.5 521.5t-344.5 188.5t-344.5 -188.5t-124.5 -521.5zM639 1604l216 296h228l-351 -296h-93z" />
<glyph unicode="&#xd4;" horiz-adv-x="1591" d="M105 740q0 361 185 569t506 208t506 -208t185 -569t-185 -569t-506 -208t-506 208t-185 569zM327 740q0 -333 124.5 -521t344.5 -188t344.5 188t124.5 521t-124.5 521.5t-344.5 188.5t-344.5 -188.5t-124.5 -521.5zM463 1604l222 296h222l222 -296h-86l-247 197 l-247 -197h-86z" />
<glyph unicode="&#xd5;" horiz-adv-x="1591" d="M105 740q0 361 185 569t506 208t506 -208t185 -569t-185 -569t-506 -208t-506 208t-185 569zM327 740q0 -333 124.5 -521t344.5 -188t344.5 188t124.5 521t-124.5 521.5t-344.5 188.5t-344.5 -188.5t-124.5 -521.5zM469 1604q40 235 229 235q53 0 115 -38l35 -22 q54 -34 106 -34q98 0 117 93h62q-40 -234 -230 -234q-52 0 -114 38l-35 22q-55 34 -106 34q-91 0 -117 -94h-62z" />
<glyph unicode="&#xd6;" horiz-adv-x="1591" d="M105 740q0 361 185 569t506 208t506 -208t185 -569t-185 -569t-506 -208t-506 208t-185 569zM327 740q0 -333 124.5 -521t344.5 -188t344.5 188t124.5 521t-124.5 521.5t-344.5 188.5t-344.5 -188.5t-124.5 -521.5zM512 1604v173h173v-173h-173zM907 1604v173h173v-173 h-173z" />
<glyph unicode="&#xd7;" d="M80 125l464 467l-464 458l76 85l467 -469l469 469l74 -87l-461 -456l461 -466l-75 -77l-468 459l-467 -459z" />
<glyph unicode="&#xd8;" horiz-adv-x="1591" d="M105 -37l182 214q-182 215 -182 582q0 342 188 550t497 208q268 0 472 -169l136 169h89l-172 -223q172 -215 172 -570q0 -348 -189.5 -554.5t-508.5 -206.5q-254 0 -447 160l-138 -160h-99zM327 748q0 -256 76 -432l760 913q-125 221 -367 221q-218 0 -343.5 -188.5 t-125.5 -513.5zM441 241q117 -210 352 -210q222 0 347 187t125 519q0 236 -64 417z" />
<glyph unicode="&#xd9;" horiz-adv-x="1472" d="M16 1419v61h583v-61l-18 -2q-123 -8 -145 -33.5t-22 -162.5v-633q0 -230 12 -300t60 -133q97 -126 290 -126q181 0 290 110q61 62 79.5 137t18.5 268v677q0 136 -22.5 162t-144.5 34l-18 2v61h474v-61l-19 -2q-123 -8 -144.5 -33.5t-21.5 -162.5v-620q0 -206 -23 -302 t-92 -179q-130 -157 -402 -157q-550 0 -550 591v667q0 136 -22.5 162t-143.5 34zM485 1900h228l216 -296h-92z" />
<glyph unicode="&#xda;" horiz-adv-x="1472" d="M16 1419v61h583v-61l-18 -2q-123 -8 -145 -33.5t-22 -162.5v-633q0 -230 12 -300t60 -133q97 -126 290 -126q181 0 290 110q61 62 79.5 137t18.5 268v677q0 136 -22.5 162t-144.5 34l-18 2v61h474v-61l-19 -2q-123 -8 -144.5 -33.5t-21.5 -162.5v-620q0 -206 -23 -302 t-92 -179q-130 -157 -402 -157q-550 0 -550 591v667q0 136 -22.5 162t-143.5 34zM590 1604l216 296h228l-351 -296h-93z" />
<glyph unicode="&#xdb;" horiz-adv-x="1472" d="M16 1419v61h583v-61l-18 -2q-123 -8 -145 -33.5t-22 -162.5v-633q0 -230 12 -300t60 -133q97 -126 290 -126q181 0 290 110q61 62 79.5 137t18.5 268v677q0 136 -22.5 162t-144.5 34l-18 2v61h474v-61l-19 -2q-123 -8 -144.5 -33.5t-21.5 -162.5v-620q0 -206 -23 -302 t-92 -179q-130 -157 -402 -157q-550 0 -550 591v667q0 136 -22.5 162t-143.5 34zM451 1604l222 296h222l222 -296h-86l-247 197l-247 -197h-86z" />
<glyph unicode="&#xdc;" horiz-adv-x="1472" d="M16 1419v61h583v-61l-18 -2q-123 -8 -145 -33.5t-22 -162.5v-633q0 -230 12 -300t60 -133q97 -126 290 -126q181 0 290 110q61 62 79.5 137t18.5 268v677q0 136 -22.5 162t-144.5 34l-18 2v61h474v-61l-19 -2q-123 -8 -144.5 -33.5t-21.5 -162.5v-620q0 -206 -23 -302 t-92 -179q-130 -157 -402 -157q-550 0 -550 591v667q0 136 -22.5 162t-143.5 34zM488 1604v173h173v-173h-173zM883 1604v173h173v-173h-173z" />
<glyph unicode="&#xdd;" horiz-adv-x="1388" d="M0 1419v61h574v-61h-20q-142 0 -144 -33q-2 -29 82 -171l277 -467l289 466q86 139 86 171q0 34 -139 34h-18v61h401v-61l-19 -2q-97 -6 -112.5 -19.5t-121.5 -182.5l-345 -559v-397q0 -136 21.5 -161.5t144.5 -34.5l19 -1v-62h-580v62l18 1q124 9 145.5 34.5t21.5 161.5 v397l-338 559q-107 176 -119 187t-103 15zM569 1604l216 296h228l-351 -296h-93z" />
<glyph unicode="&#xde;" horiz-adv-x="1173" d="M43 0v62l19 1q121 8 143.5 34.5t22.5 161.5v962q0 136 -22.5 162t-143.5 34l-19 2v61h580v-61l-19 -2q-122 -8 -144 -34t-22 -162v-43l141 1q304 0 430 -87.5t126 -299.5q0 -238 -158.5 -357.5t-475.5 -119.5h-63v-56q0 -135 22 -161.5t144 -34.5l19 -1v-62h-580z M438 382h75q200 0 300 103.5t100 310.5q0 157 -90 235.5t-271 78.5h-114v-728z" />
<glyph unicode="&#xdf;" horiz-adv-x="1258" d="M37 0v62l19 1q121 8 143.5 34.5t22.5 161.5v853q0 275 82 384q81 108 287 108q158 0 258.5 -74t100.5 -191q0 -90 -133 -231l-38 -40q-76 -80 -76 -138q0 -65 117 -165l176 -150q188 -159 188 -324q0 -135 -96.5 -225.5t-241.5 -90.5q-102 0 -223 29v224h99l1 -18 q7 -117 27 -145t96 -28q80 0 129 51t49 134q0 110 -119 214l-189 166q-136 119 -136 240q0 74 79 175l26 34q80 103 80 241q0 125 -43 187.5t-129 62.5q-96 0 -135 -72.5t-39 -253.5v-957q0 -127 17.5 -159t87.5 -37l19 -1v-62h-506z" />
<glyph unicode="&#xe0;" horiz-adv-x="1112" d="M100 282q0 154 120 250q137 110 464 110h41v135q0 257 -195 257q-91 0 -161 -56q-41 -34 -52 -139l-1 -19h-134v199q208 91 386 91q354 0 354 -325v-484q0 -130 22.5 -183t78.5 -53q20 0 53 9l6 -74q-71 -25 -127 -25q-146 0 -185 174q-176 -174 -348 -174 q-138 0 -230 87.5t-92 219.5zM309 310q0 -94 61 -156t152 -62q86 0 203 79v409h-46q-174 0 -272 -72t-98 -198zM312 1579h228l216 -296h-92z" />
<glyph unicode="&#xe1;" horiz-adv-x="1112" d="M100 282q0 154 120 250q137 110 464 110h41v135q0 257 -195 257q-91 0 -161 -56q-41 -34 -52 -139l-1 -19h-134v199q208 91 386 91q354 0 354 -325v-484q0 -130 22.5 -183t78.5 -53q20 0 53 9l6 -74q-71 -25 -127 -25q-146 0 -185 174q-176 -174 -348 -174 q-138 0 -230 87.5t-92 219.5zM309 310q0 -94 61 -156t152 -62q86 0 203 79v409h-46q-174 0 -272 -72t-98 -198zM368 1283l216 296h228l-351 -296h-93z" />
<glyph unicode="&#xe2;" horiz-adv-x="1112" d="M100 282q0 154 120 250q137 110 464 110h41v135q0 257 -195 257q-91 0 -161 -56q-41 -34 -52 -139l-1 -19h-134v199q208 91 386 91q354 0 354 -325v-484q0 -130 22.5 -183t78.5 -53q20 0 53 9l6 -74q-71 -25 -127 -25q-146 0 -185 174q-176 -174 -348 -174 q-138 0 -230 87.5t-92 219.5zM230 1283l222 296h222l222 -296h-86l-247 197l-247 -197h-86zM309 310q0 -94 61 -156t152 -62q86 0 203 79v409h-46q-174 0 -272 -72t-98 -198z" />
<glyph unicode="&#xe3;" horiz-adv-x="1112" d="M100 282q0 154 120 250q137 110 464 110h41v135q0 257 -195 257q-91 0 -161 -56q-41 -34 -52 -139l-1 -19h-134v199q208 91 386 91q354 0 354 -325v-484q0 -130 22.5 -183t78.5 -53q20 0 53 9l6 -74q-71 -25 -127 -25q-146 0 -185 174q-176 -174 -348 -174 q-138 0 -230 87.5t-92 219.5zM235 1283q40 235 229 235q53 0 115 -38l35 -22q54 -34 106 -34q98 0 117 93h62q-40 -234 -230 -234q-52 0 -114 38l-35 22q-55 34 -106 34q-91 0 -117 -94h-62zM309 310q0 -94 61 -156t152 -62q86 0 203 79v409h-46q-174 0 -272 -72t-98 -198z " />
<glyph unicode="&#xe4;" horiz-adv-x="1112" d="M100 282q0 154 120 250q137 110 464 110h41v135q0 257 -195 257q-91 0 -161 -56q-41 -34 -52 -139l-1 -19h-134v199q208 91 386 91q354 0 354 -325v-484q0 -130 22.5 -183t78.5 -53q20 0 53 9l6 -74q-71 -25 -127 -25q-146 0 -185 174q-176 -174 -348 -174 q-138 0 -230 87.5t-92 219.5zM278 1283v173h173v-173h-173zM309 310q0 -94 61 -156t152 -62q86 0 203 79v409h-46q-174 0 -272 -72t-98 -198zM673 1283v173h173v-173h-173z" />
<glyph unicode="&#xe5;" horiz-adv-x="1112" d="M100 282q0 154 120 250q137 110 464 110h41v135q0 257 -195 257q-91 0 -161 -56q-41 -34 -52 -139l-1 -19h-134v199q208 91 386 91q354 0 354 -325v-484q0 -130 22.5 -183t78.5 -53q20 0 53 9l6 -74q-71 -25 -127 -25q-146 0 -185 174q-176 -174 -348 -174 q-138 0 -230 87.5t-92 219.5zM309 310q0 -94 61 -156t152 -62q86 0 203 79v409h-46q-174 0 -272 -72t-98 -198zM366 1443q0 67 47 114t113 47q67 0 114 -47t47 -114q0 -66 -47 -113t-114 -47q-66 0 -113 47t-47 113zM427 1443q0 -41 29 -69.5t70 -28.5t70 28.5t29 69.5 q0 42 -29 70.5t-70 28.5t-70 -29t-29 -70z" />
<glyph unicode="&#xe6;" horiz-adv-x="1697" d="M100 282q0 360 584 360h41v135q0 257 -195 257q-194 0 -213 -195l-1 -19h-134v199q196 92 353 92q229 0 337 -129q131 128 311 128q195 0 299.5 -132.5t104.5 -380.5v-18h-663q0 -511 360 -511q144 0 302 75l6 -98q-215 -70 -343 -70q-282 0 -445 225 q-200 -225 -380 -225q-140 0 -232 87.5t-92 219.5zM309 310q0 -94 60.5 -156t151.5 -62q89 0 205 107v381h-47q-370 0 -370 -270zM928 641h450l1 44q0 357 -209 357q-111 0 -176.5 -108.5t-65.5 -292.5z" />
<glyph unicode="&#xe7;" horiz-adv-x="1042" d="M99 537q0 264 141 418.5t381 154.5q121 0 317 -49v-259h-123l-1 18q0 224 -197 224q-143 0 -227.5 -130t-84.5 -352q0 -227 100 -358t272 -131q148 0 261 50v-86q-151 -67 -297 -67l-52 -83q170 -32 170 -148q0 -67 -47.5 -100.5t-142.5 -33.5q-57 0 -121 15v63 q32 -9 68 -9q50 0 75 21t25 62q0 76 -124 97l74 121q-219 29 -343 178t-124 384z" />
<glyph unicode="&#xe8;" horiz-adv-x="1085" d="M99 554q0 244 134 400t344 156q194 0 298.5 -131t104.5 -374v-19h-663q0 -253 88.5 -382t262.5 -129q183 0 312 75v-101q-188 -74 -343 -74q-239 0 -388.5 161t-149.5 418zM302 1579h228l216 -296h-92zM321 648h450l1 44q0 189 -49 273t-160 84t-176.5 -109t-65.5 -292z " />
<glyph unicode="&#xe9;" horiz-adv-x="1085" d="M99 554q0 244 134 400t344 156q194 0 298.5 -131t104.5 -374v-19h-663q0 -253 88.5 -382t262.5 -129q183 0 312 75v-101q-188 -74 -343 -74q-239 0 -388.5 161t-149.5 418zM321 648h450l1 44q0 189 -49 273t-160 84t-176.5 -109t-65.5 -292zM395 1283l216 296h228 l-351 -296h-93z" />
<glyph unicode="&#xea;" horiz-adv-x="1085" d="M99 554q0 244 134 400t344 156q194 0 298.5 -131t104.5 -374v-19h-663q0 -253 88.5 -382t262.5 -129q183 0 312 75v-101q-188 -74 -343 -74q-239 0 -388.5 161t-149.5 418zM219 1283l222 296h222l222 -296h-86l-247 197l-247 -197h-86zM321 648h450l1 44q0 189 -49 273 t-160 84t-176.5 -109t-65.5 -292z" />
<glyph unicode="&#xeb;" horiz-adv-x="1085" d="M99 554q0 244 134 400t344 156q194 0 298.5 -131t104.5 -374v-19h-663q0 -253 88.5 -382t262.5 -129q183 0 312 75v-101q-188 -74 -343 -74q-239 0 -388.5 161t-149.5 418zM305 1283v173h173v-173h-173zM321 648h450l1 44q0 189 -49 273t-160 84t-176.5 -109t-65.5 -292z M700 1283v173h173v-173h-173z" />
<glyph unicode="&#xec;" horiz-adv-x="629" d="M34 1579h228l216 -296h-92zM37 0v62l19 1q121 8 143.5 34.5t22.5 161.5v568q0 135 -22.5 161t-143.5 35l-19 1v62h382v-827q0 -136 22 -162t145 -34l19 -1v-62h-568z" />
<glyph unicode="&#xed;" horiz-adv-x="629" d="M37 0v62l19 1q121 8 143.5 34.5t22.5 161.5v568q0 135 -22.5 161t-143.5 35l-19 1v62h382v-827q0 -136 22 -162t145 -34l19 -1v-62h-568zM152 1283l216 296h228l-351 -296h-93z" />
<glyph unicode="&#xee;" horiz-adv-x="629" d="M-37 1283l222 296h222l222 -296h-86l-247 197l-247 -197h-86zM37 0v62l19 1q121 8 143.5 34.5t22.5 161.5v568q0 135 -22.5 161t-143.5 35l-19 1v62h382v-827q0 -136 22 -162t145 -34l19 -1v-62h-568z" />
<glyph unicode="&#xef;" horiz-adv-x="629" d="M12 1283v173h173v-173h-173zM37 0v62l19 1q121 8 143.5 34.5t22.5 161.5v568q0 135 -22.5 161t-143.5 35l-19 1v62h382v-827q0 -136 22 -162t145 -34l19 -1v-62h-568zM407 1283v173h173v-173h-173z" />
<glyph unicode="&#xf0;" horiz-adv-x="1221" d="M99 1507v72q260 0 512 -135l210 141l35 -50l-197 -131q213 -141 339.5 -363.5t126.5 -456.5q0 -272 -144 -440.5t-377 -168.5q-226 0 -364.5 154t-138.5 405q0 242 139.5 397t356.5 155q67 0 142 -26q-83 143 -213 254l-287 -195l-36 53l274 182q-179 136 -378 153z M311 528q0 -215 88.5 -353t226.5 -138q151 0 226.5 132.5t75.5 396.5q0 210 -83.5 334t-224.5 124q-139 0 -224 -136t-85 -360z" />
<glyph unicode="&#xf1;" horiz-adv-x="1295" d="M37 0v62l19 1q121 8 143.5 34.5t22.5 161.5v568q0 135 -22.5 161t-143.5 35l-19 1v62h382v-204q75 114 173 171t219 57q140 0 220 -92q79 -92 79 -253v-506q7 -149 23 -168t144 -28l18 -1v-62h-567v62l18 1q128 9 144 28t23 168v475q0 140 -36.5 194.5t-130.5 54.5 q-66 0 -148 -41.5t-179 -125.5v-557q0 -136 22 -162t145 -34l19 -1v-62h-568zM321 1283q40 235 229 235q53 0 115 -38l35 -22q54 -34 106 -34q98 0 117 93h62q-40 -234 -230 -234q-52 0 -114 38l-35 22q-55 34 -106 34q-91 0 -117 -94h-62z" />
<glyph unicode="&#xf2;" horiz-adv-x="1234" d="M99 543q0 263 139 415t379 152q241 0 379.5 -152t138.5 -415t-139 -415.5t-379 -152.5t-379 152.5t-139 415.5zM309 543q0 -219 87.5 -362.5t220.5 -143.5t221 143.5t88 362.5q0 217 -88 361.5t-221 144.5q-132 0 -220 -144.5t-88 -361.5zM367 1579h228l216 -296h-92z " />
<glyph unicode="&#xf3;" horiz-adv-x="1234" d="M99 543q0 263 139 415t379 152q241 0 379.5 -152t138.5 -415t-139 -415.5t-379 -152.5t-379 152.5t-139 415.5zM309 543q0 -219 87.5 -362.5t220.5 -143.5t221 143.5t88 362.5q0 217 -88 361.5t-221 144.5q-132 0 -220 -144.5t-88 -361.5zM423 1283l216 296h228 l-351 -296h-93z" />
<glyph unicode="&#xf4;" horiz-adv-x="1234" d="M99 543q0 263 139 415t379 152q241 0 379.5 -152t138.5 -415t-139 -415.5t-379 -152.5t-379 152.5t-139 415.5zM284 1283l222 296h222l222 -296h-86l-247 197l-247 -197h-86zM309 543q0 -219 87.5 -362.5t220.5 -143.5t221 143.5t88 362.5q0 217 -88 361.5t-221 144.5 q-132 0 -220 -144.5t-88 -361.5z" />
<glyph unicode="&#xf5;" horiz-adv-x="1234" d="M99 543q0 263 139 415t379 152q241 0 379.5 -152t138.5 -415t-139 -415.5t-379 -152.5t-379 152.5t-139 415.5zM290 1283q40 235 229 235q53 0 115 -38l35 -22q54 -34 106 -34q98 0 117 93h62q-40 -234 -230 -234q-52 0 -114 38l-35 22q-55 34 -106 34q-91 0 -117 -94 h-62zM309 543q0 -219 87.5 -362.5t220.5 -143.5t221 143.5t88 362.5q0 217 -88 361.5t-221 144.5q-132 0 -220 -144.5t-88 -361.5z" />
<glyph unicode="&#xf6;" horiz-adv-x="1234" d="M99 543q0 263 139 415t379 152q241 0 379.5 -152t138.5 -415t-139 -415.5t-379 -152.5t-379 152.5t-139 415.5zM309 543q0 -219 87.5 -362.5t220.5 -143.5t221 143.5t88 362.5q0 217 -88 361.5t-221 144.5q-132 0 -220 -144.5t-88 -361.5zM333 1283v173h173v-173h-173z M728 1283v173h173v-173h-173z" />
<glyph unicode="&#xf7;" d="M80 537v111h1086v-111h-1086zM530 93v185h185v-185h-185zM530 907v185h185v-185h-185z" />
<glyph unicode="&#xf8;" horiz-adv-x="1234" d="M99 -25l132 155q-132 177 -132 413q0 259 137.5 413t367.5 154q179 0 337 -112l92 112h102l-140 -166q140 -162 140 -401q0 -261 -138 -414.5t-372 -153.5q-201 0 -340 103l-90 -103h-96zM309 538q0 -133 49 -257l489 601q-84 167 -230 167q-130 0 -219 -148t-89 -363z M396 200q85 -163 218 -163q131 0 221.5 144.5t90.5 353.5q0 146 -50 267z" />
<glyph unicode="&#xf9;" horiz-adv-x="1295" d="M0 1024v62h382v-734q0 -125 44.5 -187.5t133.5 -62.5q82 0 161 42t155 126v557q-7 149 -23 168t-144 28l-18 1v62h382v-827q7 -149 23 -168t144 -28l19 -1v-62h-383v204q-75 -114 -172.5 -171.5t-218.5 -57.5q-140 0 -220 93q-80 92 -80 253v506q0 135 -22.5 161 t-143.5 35zM361 1579h228l216 -296h-92z" />
<glyph unicode="&#xfa;" horiz-adv-x="1295" d="M0 1024v62h382v-734q0 -125 44.5 -187.5t133.5 -62.5q82 0 161 42t155 126v557q-7 149 -23 168t-144 28l-18 1v62h382v-827q7 -149 23 -168t144 -28l19 -1v-62h-383v204q-75 -114 -172.5 -171.5t-218.5 -57.5q-140 0 -220 93q-80 92 -80 253v506q0 135 -22.5 161 t-143.5 35zM442 1283l216 296h228l-351 -296h-93z" />
<glyph unicode="&#xfb;" horiz-adv-x="1295" d="M0 1024v62h382v-734q0 -125 44.5 -187.5t133.5 -62.5q82 0 161 42t155 126v557q-7 149 -23 168t-144 28l-18 1v62h382v-827q7 -149 23 -168t144 -28l19 -1v-62h-383v204q-75 -114 -172.5 -171.5t-218.5 -57.5q-140 0 -220 93q-80 92 -80 253v506q0 135 -22.5 161 t-143.5 35zM266 1283l222 296h222l222 -296h-86l-247 197l-247 -197h-86z" />
<glyph unicode="&#xfc;" horiz-adv-x="1295" d="M0 1024v62h382v-734q0 -125 44.5 -187.5t133.5 -62.5q82 0 161 42t155 126v557q-7 149 -23 168t-144 28l-18 1v62h382v-827q7 -149 23 -168t144 -28l19 -1v-62h-383v204q-75 -114 -172.5 -171.5t-218.5 -57.5q-140 0 -220 93q-80 92 -80 253v506q0 135 -22.5 161 t-143.5 35zM327 1283v173h173v-173h-173zM722 1283v173h173v-173h-173z" />
<glyph unicode="&#xfd;" horiz-adv-x="1129" d="M0 1024v62h496v-62h-21q-136 0 -136 -36q0 -18 57 -165l243 -583l259 586q57 129 57 155q0 43 -121 43h-27v62h322v-62l-19 -1q-62 -4 -106 -113q-8 -19 -38 -86l-551 -1219h-249l356 395l-342 823q-54 132 -80 164.5t-80 35.5zM456 1283l216 296h228l-351 -296h-93z" />
<glyph unicode="&#xfe;" horiz-adv-x="1314" d="M37 -333l19 1q121 9 143.5 35t22.5 161v1259q0 135 -22 161t-144 35l-19 1v62h382v-500q74 114 169.5 171t212.5 57q184 0 293 -145t109 -390q0 -272 -125 -436t-332 -164q-95 0 -177 37t-150 111v-259q0 -136 22 -161.5t145 -34.5l19 -1v-62h-568v62zM419 201 q79 -58 154 -87t147 -29q137 0 205 109t68 327q0 231 -66 346.5t-199 115.5q-89 0 -166 -42.5t-143 -127.5v-612z" />
<glyph unicode="&#xff;" horiz-adv-x="1129" d="M0 1024v62h496v-62h-21q-136 0 -136 -36q0 -18 57 -165l243 -583l259 586q57 129 57 155q0 43 -121 43h-27v62h322v-62l-19 -1q-62 -4 -106 -113q-8 -19 -38 -86l-551 -1219h-249l356 395l-342 823q-54 132 -80 164.5t-80 35.5zM355 1283v173h173v-173h-173zM750 1283 v173h173v-173h-173z" />
<glyph unicode="&#x152;" horiz-adv-x="2076" d="M105 741q0 353 182 565t485 212q199 0 357 -110v72h842v-259h-111l-1 19q-5 140 -37 150t-145 10h-323v-592l284 1q93 0 111.5 9t22.5 95l2 18h92v-326h-92l-2 18q-5 76 -23 90.5t-111 14.5h-284v-469q0 -116 28 -144.5t143 -28.5h157q172 0 199 17.5t33 130.5l2 19h111 v-253h-902v64q-149 -101 -342 -101q-310 0 -494 211t-184 567zM328 741q0 -326 122.5 -518.5t329.5 -192.5q184 0 266.5 134.5t82.5 435.5v270q0 327 -74.5 453.5t-266.5 126.5q-215 0 -337.5 -189t-122.5 -520z" />
<glyph unicode="&#x153;" horiz-adv-x="1860" d="M99 542q0 260 138.5 414t372.5 154q240 0 360 -201q153 200 382 200q194 0 298.5 -131t104.5 -375v-18h-663q0 -511 351 -511q181 0 311 72l1 -100q-202 -71 -340 -71q-140 0 -233 45t-204 165q-162 -210 -380 -210q-222 0 -360.5 157.5t-138.5 409.5zM310 540 q0 -216 89.5 -360.5t223.5 -144.5q257 0 257 525q0 487 -255 487q-136 0 -225.5 -144.5t-89.5 -362.5zM1093 648h450l1 44q0 179 -52 268t-157 89q-111 0 -176.5 -108.5t-65.5 -292.5z" />
<glyph unicode="&#x178;" horiz-adv-x="1388" d="M0 1419v61h574v-61h-20q-142 0 -144 -33q-2 -29 82 -171l277 -467l289 466q86 139 86 171q0 34 -139 34h-18v61h401v-61l-19 -2q-97 -6 -112.5 -19.5t-121.5 -182.5l-345 -559v-397q0 -136 21.5 -161.5t144.5 -34.5l19 -1v-62h-580v62l18 1q124 9 145.5 34.5t21.5 161.5 v397l-338 559q-107 176 -119 187t-103 15zM443 1604v173h173v-173h-173zM838 1604v173h173v-173h-173z" />
<glyph unicode="&#x2c6;" horiz-adv-x="1234" d="M284 1283l222 296h222l222 -296h-86l-247 197l-247 -197h-86z" />
<glyph unicode="&#x2dc;" horiz-adv-x="1234" d="M285 1283q40 235 229 235q53 0 115 -38l35 -22q54 -34 106 -34q98 0 117 93h62q-40 -234 -230 -234q-52 0 -114 38l-35 22q-55 34 -106 34q-91 0 -117 -94h-62z" />
<glyph unicode="&#x2000;" horiz-adv-x="950" />
<glyph unicode="&#x2001;" horiz-adv-x="1900" />
<glyph unicode="&#x2002;" horiz-adv-x="950" />
<glyph unicode="&#x2003;" horiz-adv-x="1900" />
<glyph unicode="&#x2004;" horiz-adv-x="633" />
<glyph unicode="&#x2005;" horiz-adv-x="475" />
<glyph unicode="&#x2006;" horiz-adv-x="316" />
<glyph unicode="&#x2007;" horiz-adv-x="316" />
<glyph unicode="&#x2008;" horiz-adv-x="237" />
<glyph unicode="&#x2009;" horiz-adv-x="380" />
<glyph unicode="&#x200a;" horiz-adv-x="105" />
<glyph unicode="&#x2010;" horiz-adv-x="666" d="M99 537v148h469v-148h-469z" />
<glyph unicode="&#x2011;" horiz-adv-x="666" d="M99 537v148h469v-148h-469z" />
<glyph unicode="&#x2012;" horiz-adv-x="666" d="M99 537v148h469v-148h-469z" />
<glyph unicode="&#x2013;" horiz-adv-x="1024" d="M99 543v123h827v-123h-827z" />
<glyph unicode="&#x2014;" horiz-adv-x="2048" d="M111 543v99h1826v-99h-1826z" />
<glyph unicode="&#x2018;" horiz-adv-x="543" d="M148 1012v214q0 127 13.5 175t65.5 101q70 71 168 77v-62q-99 -8 -99 -194v-65h99v-246h-247z" />
<glyph unicode="&#x2019;" horiz-adv-x="543" d="M148 1012v61q99 9 99 195v64h-99v247h247v-214q0 -127 -14 -175t-65 -101q-70 -71 -168 -77z" />
<glyph unicode="&#x201a;" horiz-adv-x="543" d="M148 0v247h247v-215q0 -127 -14 -174.5t-65 -100.5q-70 -72 -168 -78v62q99 9 99 194v65h-99z" />
<glyph unicode="&#x201c;" horiz-adv-x="938" d="M148 1012v214q0 127 13.5 175t65.5 101q70 71 168 77v-62q-99 -8 -99 -194v-65h99v-246h-247zM543 1012v214q0 128 13.5 175t65.5 101q70 71 168 77v-62q-99 -8 -99 -194v-65h99v-246h-247z" />
<glyph unicode="&#x201d;" horiz-adv-x="938" d="M148 1012v61q99 9 99 195v64h-99v247h247v-214q0 -127 -14 -175t-65 -101q-70 -71 -168 -77zM543 1012v61q98 9 98 195v64h-98v247h247v-214q0 -127 -14 -175t-66 -101q-69 -71 -167 -77z" />
<glyph unicode="&#x201e;" horiz-adv-x="938" d="M148 0v247h247v-215q0 -127 -14 -174.5t-65 -100.5q-70 -72 -168 -78v62q99 9 99 194v65h-99zM543 0v247h247v-215q0 -127 -14 -174.5t-66 -100.5q-69 -72 -167 -78v62q98 9 98 194v65h-98z" />
<glyph unicode="&#x2022;" d="M475 586q0 61 43.5 104.5t104.5 43.5t104.5 -43.5t43.5 -104.5q0 -62 -43 -105t-105 -43t-105 43t-43 105z" />
<glyph unicode="&#x2026;" horiz-adv-x="2048" d="M243 0v197h197v-197h-197zM925 0v197h198v-197h-198zM1607 0v197h197v-197h-197z" />
<glyph unicode="&#x202f;" horiz-adv-x="380" />
<glyph unicode="&#x2039;" horiz-adv-x="695" d="M99 543l423 432l50 -39l-274 -393l274 -392l-50 -40z" />
<glyph unicode="&#x203a;" horiz-adv-x="695" d="M123 149l273 394l-273 391l50 41l423 -432l-423 -432z" />
<glyph unicode="&#x205f;" horiz-adv-x="475" />
<glyph unicode="&#x20ac;" horiz-adv-x="1245" d="M-12 623l12 63h106q-2 17 -2 53v56h-116l12 63h111v6q0 237 155.5 445.5t470.5 208.5q83 0 168 -22l199 -52v-285h-125v21q0 117 -16.5 156t-88.5 76.5t-147 37.5q-171 0 -285 -160.5t-114 -425.5v-6h506l-13 -63h-497v-35l2 -66v-8h479l-12 -63h-463v-7 q27 -266 156 -410.5t337 -144.5q88 0 154 33t151 105v-95q-157 -141 -383 -141q-97 0 -184.5 23.5t-149.5 64t-113 98.5t-89.5 131t-68 174t-29.5 162v7h-123z" />
<glyph unicode="&#x2122;" horiz-adv-x="1851" d="M31 1283v197h691v-197h-86v136h-186v-629h136v-62h-419v62h135v629h-185v-136h-86zM784 728v62h135v629h-135v61h356l165 -442l153 442h325v-61h-136v-629h136v-62h-296v641l-203 -579h-64l-202 538v-600h-234z" />
<glyph unicode="&#x25fc;" horiz-adv-x="1085" d="M0 0v1085h1085v-1085h-1085z" />
</font>
</defs></svg> 